%!PS-Adobe-3.0 EPSF-3.0
%%Title: /home/bwang/project/hydrogenexchange/BHI/flowchart/roc.eps
%%Creator: matplotlib version 2.0.2, http://matplotlib.org/
%%CreationDate: Mon Nov  6 19:09:32 2017
%%Orientation: portrait
%%BoundingBox: 75 223 536 568
%%EndComments
%%BeginProlog
/mpldict 8 dict def
mpldict begin
/m { moveto } bind def
/l { lineto } bind def
/r { rlineto } bind def
/c { curveto } bind def
/cl { closepath } bind def
/box {
m
1 index 0 r
0 exch r
neg 0 r
cl
} bind def
/clipbox {
box
clip
newpath
} bind def
%!PS-Adobe-3.0 Resource-Font
%%Title: DejaVu Sans
%%Copyright: Copyright (c) 2003 by Bitstream, Inc. All Rights Reserved. Copyright (c) 2006 by Tavmjong Bah. All Rights Reserved. DejaVu changes are in public domain 
%%Creator: Converted from TrueType to type 3 by PPR
25 dict begin
/_d{bind def}bind def
/_m{moveto}_d
/_l{lineto}_d
/_cl{closepath eofill}_d
/_c{curveto}_d
/_sc{7 -1 roll{setcachedevice}{pop pop pop pop pop pop}ifelse}_d
/_e{exec}_d
/FontName /DejaVuSans def
/PaintType 0 def
/FontMatrix[.001 0 0 .001 0 0]def
/FontBBox[-1021 -463 1793 1232]def
/FontType 3 def
/Encoding [ /space /period /zero /one /two /four /six /eight /C /F /O /P /R /T /a /e /i /l /o /r /s /t /u /v ] def
/FontInfo 10 dict dup begin
/FamilyName (DejaVu Sans) def
/FullName (DejaVu Sans) def
/Notice (Copyright (c) 2003 by Bitstream, Inc. All Rights Reserved. Copyright (c) 2006 by Tavmjong Bah. All Rights Reserved. DejaVu changes are in public domain ) def
/Weight (Book) def
/Version (Version 2.35) def
/ItalicAngle 0.0 def
/isFixedPitch false def
/UnderlinePosition -130 def
/UnderlineThickness 90 def
end readonly def
/CharStrings 24 dict dup begin
/space{318 0 0 0 0 0 _sc
}_d
/period{318 0 107 0 210 124 _sc
107 124 _m
210 124 _l
210 0 _l
107 0 _l
107 124 _l
_cl}_d
/zero{636 0 66 -13 570 742 _sc
318 664 _m
267 664 229 639 203 589 _c
177 539 165 464 165 364 _c
165 264 177 189 203 139 _c
229 89 267 64 318 64 _c
369 64 407 89 433 139 _c
458 189 471 264 471 364 _c
471 464 458 539 433 589 _c
407 639 369 664 318 664 _c
318 742 _m
399 742 461 709 505 645 _c
548 580 570 486 570 364 _c
570 241 548 147 505 83 _c
461 19 399 -13 318 -13 _c
236 -13 173 19 130 83 _c
87 147 66 241 66 364 _c
66 486 87 580 130 645 _c
173 709 236 742 318 742 _c
_cl}_d
/one{636 0 110 0 544 729 _sc
124 83 _m
285 83 _l
285 639 _l
110 604 _l
110 694 _l
284 729 _l
383 729 _l
383 83 _l
544 83 _l
544 0 _l
124 0 _l
124 83 _l
_cl}_d
/two{{636 0 73 0 536 742 _sc
192 83 _m
536 83 _l
536 0 _l
73 0 _l
73 83 _l
110 121 161 173 226 239 _c
290 304 331 346 348 365 _c
380 400 402 430 414 455 _c
426 479 433 504 433 528 _c
433 566 419 598 392 622 _c
365 646 330 659 286 659 _c
255 659 222 653 188 643 _c
154 632 117 616 78 594 _c
78 694 _l
118 710 155 722 189 730 _c
223 738 255 742 284 742 _c
}_e{359 742 419 723 464 685 _c
509 647 532 597 532 534 _c
532 504 526 475 515 449 _c
504 422 484 390 454 354 _c
446 344 420 317 376 272 _c
332 227 271 164 192 83 _c
_cl}_e}_d
/four{636 0 49 0 580 729 _sc
378 643 _m
129 254 _l
378 254 _l
378 643 _l
352 729 _m
476 729 _l
476 254 _l
580 254 _l
580 172 _l
476 172 _l
476 0 _l
378 0 _l
378 172 _l
49 172 _l
49 267 _l
352 729 _l
_cl}_d
/six{{636 0 70 -13 573 742 _sc
330 404 _m
286 404 251 388 225 358 _c
199 328 186 286 186 234 _c
186 181 199 139 225 109 _c
251 79 286 64 330 64 _c
374 64 409 79 435 109 _c
461 139 474 181 474 234 _c
474 286 461 328 435 358 _c
409 388 374 404 330 404 _c
526 713 _m
526 623 _l
501 635 476 644 451 650 _c
425 656 400 659 376 659 _c
310 659 260 637 226 593 _c
}_e{192 549 172 482 168 394 _c
187 422 211 444 240 459 _c
269 474 301 482 336 482 _c
409 482 467 459 509 415 _c
551 371 573 310 573 234 _c
573 159 550 99 506 54 _c
462 9 403 -13 330 -13 _c
246 -13 181 19 137 83 _c
92 147 70 241 70 364 _c
70 479 97 571 152 639 _c
206 707 280 742 372 742 _c
396 742 421 739 447 735 _c
472 730 498 723 526 713 _c
_cl}_e}_d
/eight{{636 0 68 -13 568 742 _sc
318 346 _m
271 346 234 333 207 308 _c
180 283 167 249 167 205 _c
167 161 180 126 207 101 _c
234 76 271 64 318 64 _c
364 64 401 76 428 102 _c
455 127 469 161 469 205 _c
469 249 455 283 429 308 _c
402 333 365 346 318 346 _c
219 388 _m
177 398 144 418 120 447 _c
96 476 85 511 85 553 _c
85 611 105 657 147 691 _c
188 725 245 742 318 742 _c
}_e{390 742 447 725 489 691 _c
530 657 551 611 551 553 _c
551 511 539 476 515 447 _c
491 418 459 398 417 388 _c
464 377 501 355 528 323 _c
554 291 568 251 568 205 _c
568 134 546 80 503 43 _c
459 5 398 -13 318 -13 _c
237 -13 175 5 132 43 _c
89 80 68 134 68 205 _c
68 251 81 291 108 323 _c
134 355 171 377 219 388 _c
183 544 _m
183 506 194 476 218 455 _c
}_e{242 434 275 424 318 424 _c
360 424 393 434 417 455 _c
441 476 453 506 453 544 _c
453 582 441 611 417 632 _c
393 653 360 664 318 664 _c
275 664 242 653 218 632 _c
194 611 183 582 183 544 _c
_cl}_e}_d
/C{{698 0 56 -13 644 742 _sc
644 673 _m
644 569 _l
610 599 575 622 537 638 _c
499 653 460 661 418 661 _c
334 661 270 635 226 584 _c
182 533 160 460 160 364 _c
160 268 182 194 226 143 _c
270 92 334 67 418 67 _c
460 67 499 74 537 90 _c
575 105 610 128 644 159 _c
644 56 _l
609 32 572 15 534 4 _c
496 -7 455 -13 412 -13 _c
302 -13 215 20 151 87 _c
}_e{87 154 56 246 56 364 _c
56 481 87 573 151 641 _c
215 708 302 742 412 742 _c
456 742 497 736 535 725 _c
573 713 610 696 644 673 _c
_cl}_e}_d
/F{575 0 98 0 517 729 _sc
98 729 _m
517 729 _l
517 646 _l
197 646 _l
197 431 _l
486 431 _l
486 348 _l
197 348 _l
197 0 _l
98 0 _l
98 729 _l
_cl}_d
/O{787 0 56 -13 731 742 _sc
394 662 _m
322 662 265 635 223 582 _c
181 528 160 456 160 364 _c
160 272 181 199 223 146 _c
265 92 322 66 394 66 _c
465 66 522 92 564 146 _c
606 199 627 272 627 364 _c
627 456 606 528 564 582 _c
522 635 465 662 394 662 _c
394 742 _m
496 742 577 707 639 639 _c
700 571 731 479 731 364 _c
731 248 700 157 639 89 _c
577 21 496 -13 394 -13 _c
291 -13 209 21 148 89 _c
86 157 56 248 56 364 _c
56 479 86 571 148 639 _c
209 707 291 742 394 742 _c
_cl}_d
/P{603 0 98 0 569 729 _sc
197 648 _m
197 374 _l
321 374 _l
367 374 402 385 427 409 _c
452 433 465 467 465 511 _c
465 555 452 588 427 612 _c
402 636 367 648 321 648 _c
197 648 _l
98 729 _m
321 729 _l
402 729 464 710 506 673 _c
548 636 569 582 569 511 _c
569 439 548 384 506 348 _c
464 311 402 293 321 293 _c
197 293 _l
197 0 _l
98 0 _l
98 729 _l
_cl}_d
/R{{695 0 98 0 666 729 _sc
444 342 _m
465 334 486 319 506 296 _c
526 272 546 240 566 199 _c
666 0 _l
560 0 _l
467 187 _l
443 235 419 268 397 284 _c
374 300 343 308 304 308 _c
197 308 _l
197 0 _l
98 0 _l
98 729 _l
321 729 _l
404 729 466 711 507 677 _c
548 642 569 589 569 519 _c
569 473 558 434 537 404 _c
515 374 484 353 444 342 _c
197 648 _m
197 389 _l
321 389 _l
}_e{368 389 404 400 428 422 _c
452 444 465 476 465 519 _c
465 561 452 593 428 615 _c
404 637 368 648 321 648 _c
197 648 _l
_cl}_e}_d
/T{611 0 -2 0 614 729 _sc
-2 729 _m
614 729 _l
614 646 _l
355 646 _l
355 0 _l
256 0 _l
256 646 _l
-2 646 _l
-2 729 _l
_cl}_d
/a{{613 0 60 -13 522 560 _sc
343 275 _m
270 275 220 266 192 250 _c
164 233 150 205 150 165 _c
150 133 160 107 181 89 _c
202 70 231 61 267 61 _c
317 61 357 78 387 114 _c
417 149 432 196 432 255 _c
432 275 _l
343 275 _l
522 312 _m
522 0 _l
432 0 _l
432 83 _l
411 49 385 25 355 10 _c
325 -5 287 -13 243 -13 _c
187 -13 142 2 109 33 _c
76 64 60 106 60 159 _c
}_e{60 220 80 266 122 298 _c
163 329 224 345 306 345 _c
432 345 _l
432 354 _l
432 395 418 427 391 450 _c
364 472 326 484 277 484 _c
245 484 215 480 185 472 _c
155 464 127 453 100 439 _c
100 522 _l
132 534 164 544 195 550 _c
226 556 256 560 286 560 _c
365 560 424 539 463 498 _c
502 457 522 395 522 312 _c
_cl}_e}_d
/e{{615 0 55 -13 562 560 _sc
562 296 _m
562 252 _l
149 252 _l
153 190 171 142 205 110 _c
238 78 284 62 344 62 _c
378 62 412 66 444 74 _c
476 82 509 95 541 113 _c
541 28 _l
509 14 476 3 442 -3 _c
408 -9 373 -13 339 -13 _c
251 -13 182 12 131 62 _c
80 112 55 181 55 268 _c
55 357 79 428 127 481 _c
175 533 241 560 323 560 _c
397 560 455 536 498 489 _c
}_e{540 441 562 377 562 296 _c
472 322 _m
471 371 457 410 431 440 _c
404 469 368 484 324 484 _c
274 484 234 469 204 441 _c
174 413 156 373 152 322 _c
472 322 _l
_cl}_e}_d
/i{278 0 94 0 184 760 _sc
94 547 _m
184 547 _l
184 0 _l
94 0 _l
94 547 _l
94 760 _m
184 760 _l
184 646 _l
94 646 _l
94 760 _l
_cl}_d
/l{278 0 94 0 184 760 _sc
94 760 _m
184 760 _l
184 0 _l
94 0 _l
94 760 _l
_cl}_d
/o{612 0 55 -13 557 560 _sc
306 484 _m
258 484 220 465 192 427 _c
164 389 150 338 150 273 _c
150 207 163 156 191 118 _c
219 80 257 62 306 62 _c
354 62 392 80 420 118 _c
448 156 462 207 462 273 _c
462 337 448 389 420 427 _c
392 465 354 484 306 484 _c
306 560 _m
384 560 445 534 490 484 _c
534 433 557 363 557 273 _c
557 183 534 113 490 63 _c
445 12 384 -13 306 -13 _c
227 -13 165 12 121 63 _c
77 113 55 183 55 273 _c
55 363 77 433 121 484 _c
165 534 227 560 306 560 _c
_cl}_d
/r{411 0 91 0 411 560 _sc
411 463 _m
401 469 390 473 378 476 _c
366 478 353 480 339 480 _c
288 480 249 463 222 430 _c
194 397 181 350 181 288 _c
181 0 _l
91 0 _l
91 547 _l
181 547 _l
181 462 _l
199 495 224 520 254 536 _c
284 552 321 560 365 560 _c
371 560 378 559 386 559 _c
393 558 401 557 411 555 _c
411 463 _l
_cl}_d
/s{{521 0 54 -13 472 560 _sc
443 531 _m
443 446 _l
417 458 391 468 364 475 _c
336 481 308 485 279 485 _c
234 485 200 478 178 464 _c
156 450 145 430 145 403 _c
145 382 153 366 169 354 _c
185 342 217 330 265 320 _c
296 313 _l
360 299 405 279 432 255 _c
458 230 472 195 472 151 _c
472 100 452 60 412 31 _c
372 1 316 -13 246 -13 _c
216 -13 186 -10 154 -5 _c
}_e{122 0 89 8 54 20 _c
54 113 _l
87 95 120 82 152 74 _c
184 65 216 61 248 61 _c
290 61 323 68 346 82 _c
368 96 380 117 380 144 _c
380 168 371 187 355 200 _c
339 213 303 226 247 238 _c
216 245 _l
160 257 119 275 95 299 _c
70 323 58 356 58 399 _c
58 450 76 490 112 518 _c
148 546 200 560 268 560 _c
301 560 332 557 362 552 _c
391 547 418 540 443 531 _c
}_e{_cl}_e}_d
/t{392 0 27 0 368 702 _sc
183 702 _m
183 547 _l
368 547 _l
368 477 _l
183 477 _l
183 180 _l
183 135 189 106 201 94 _c
213 81 238 75 276 75 _c
368 75 _l
368 0 _l
276 0 _l
206 0 158 13 132 39 _c
106 65 93 112 93 180 _c
93 477 _l
27 477 _l
27 547 _l
93 547 _l
93 702 _l
183 702 _l
_cl}_d
/u{634 0 85 -13 543 560 _sc
85 216 _m
85 547 _l
175 547 _l
175 219 _l
175 167 185 129 205 103 _c
225 77 255 64 296 64 _c
344 64 383 79 411 110 _c
439 141 453 183 453 237 _c
453 547 _l
543 547 _l
543 0 _l
453 0 _l
453 84 _l
431 50 405 26 377 10 _c
348 -5 315 -13 277 -13 _c
214 -13 166 6 134 45 _c
101 83 85 140 85 216 _c
311 560 _m
311 560 _l
_cl}_d
/v{592 0 30 0 562 547 _sc
30 547 _m
125 547 _l
296 88 _l
467 547 _l
562 547 _l
357 0 _l
235 0 _l
30 547 _l
_cl}_d
end readonly def

/BuildGlyph
 {exch begin
 CharStrings exch
 2 copy known not{pop /.notdef}if
 true 3 1 roll get exec
 end}_d

/BuildChar {
 1 index /Encoding get exch get
 1 index /BuildGlyph get exec
}_d

FontName currentdict end definefont pop
end
%%EndProlog
mpldict begin
75.6 223.2 translate
460.8 345.6 0 0 clipbox
gsave
0 0 m
460.8 0 l
460.8 345.6 l
0 345.6 l
cl
1.000 setgray
fill
grestore
gsave
103.854259 38.016 m
368.465741 38.016 l
368.465741 304.128 l
103.854259 304.128 l
cl
1.000 setgray
fill
grestore
1.000 setlinewidth
1 setlinejoin
0 setlinecap
[] 0 setdash
0.850 setgray
gsave
264.6 266.1 103.9 38.02 clipbox
/o {
gsave
newpath
translate
1.0 setlinewidth
1 setlinejoin
0 setlinecap
115.882054 69.383307 m
115.882054 53.935306 l
119.490392 87.897899 l
123.339286 97.68235 l
126.947625 110.988817 l
130.796519 123.371236 l
134.404857 130.097895 l
138.013196 137.709172 l
141.86209 152.845202 l
145.470428 168.421533 l
149.078767 170.10842 l
152.927661 184.554157 l
156.536 188.810694 l
160.384894 195.112461 l
163.993232 198.939503 l
167.601571 230.360216 l
171.450465 212.069456 l
175.058803 219.650527 l
178.907698 224.235099 l
182.516036 244.107433 l
186.124374 229.219515 l
189.973269 232.342844 l
193.581607 240.320545 l
197.189945 245.883345 l
201.03884 247.336738 l
204.647178 252.083345 l
208.496072 257.808122 l
212.104411 259.441544 l
215.712749 260.07788 l
219.561643 264.127538 l
223.169982 267.056391 l
227.018876 267.056391 l
230.627214 269.686703 l
234.235553 271.305875 l
238.084447 271.305875 l
241.692786 271.305875 l
245.301124 274.208527 l
249.150018 276.613124 l
252.758357 276.730564 l
256.607251 277.574184 l
260.215589 279.218005 l
263.823928 279.705605 l
267.672822 279.745685 l
271.28116 279.602322 l
275.130055 278.753165 l
278.738393 279.742031 l
282.346731 281.408196 l
286.195626 282.403504 l
289.803964 282.481781 l
293.412302 283.434222 l
297.261197 283.434222 l
300.869535 286.202849 l
304.718429 287.45684 l
308.326768 287.45684 l
311.935106 287.45684 l
315.784 287.059554 l
319.392339 287.45684 l
323.241233 287.45684 l
326.849572 287.45684 l
330.45791 287.45684 l
334.306804 288.393128 l
337.915143 289.624052 l
341.523481 290.667893 l
345.372375 290.667893 l
348.980714 290.667893 l
352.829608 290.667893 l
356.437946 290.667893 l
356.437946 290.667893 l
356.437946 290.667893 l
352.829608 290.667893 l
348.980714 290.667893 l
345.372375 290.667893 l
341.523481 290.667893 l
337.915143 291.01584 l
334.306804 291.190036 l
330.45791 290.992275 l
326.849572 290.992275 l
323.241233 290.992275 l
319.392339 290.992275 l
315.784 290.667893 l
311.935106 290.992275 l
308.326768 290.992275 l
304.718429 290.992275 l
300.869535 291.235931 l
297.261197 292.032 l
293.412302 292.032 l
289.803964 291.517049 l
286.195626 291.440683 l
282.346731 290.080053 l
278.738393 289.758404 l
275.130055 287.788433 l
271.28116 290.667893 l
267.672822 288.5787 l
263.823928 288.303384 l
260.215589 287.299537 l
256.607251 286.799204 l
252.758357 286.804085 l
249.150018 286.617665 l
245.301124 285.533838 l
241.692786 283.376317 l
238.084447 283.376317 l
234.235553 283.376317 l
230.627214 282.342712 l
227.018876 281.660016 l
223.169982 281.660016 l
219.561643 279.236764 l
215.712749 276.283576 l
212.104411 277.511679 l
208.496072 275.912992 l
204.647178 274.68512 l
201.03884 273.571407 l
197.189945 272.694081 l
193.581607 272.07454 l
189.973269 271.426648 l
186.124374 268.543144 l
182.516036 262.278009 l
178.907698 259.111274 l
175.058803 258.057216 l
171.450465 258.825014 l
167.601571 255.877348 l
163.993232 253.360544 l
160.384894 249.652355 l
156.536 244.586 l
152.927661 240.61696 l
149.078767 224.252683 l
145.470428 214.612906 l
141.86209 194.804217 l
138.013196 199.73152 l
134.404857 186.462875 l
130.796519 177.429635 l
126.947625 164.516492 l
123.339286 153.347142 l
119.490392 122.041673 l
115.882054 69.383307 l
cl

gsave
0.850 setgray
fill
grestore
stroke
grestore
} bind def
0 0 o
grestore
0.800 setlinewidth
0.000 setgray
gsave
/o {
gsave
newpath
translate
0.8 setlinewidth
1 setlinejoin
0 setlinecap
0 0 m
0 -3.5 l

gsave
0.000 setgray
fill
grestore
stroke
grestore
} bind def
115.882 38.016 o
grestore
/DejaVuSans findfont
10.000 scalefont
setfont
gsave
107.928929 23.422250 translate
0.000000 rotate
0.000000 0.000000 m /zero glyphshow
6.362305 0.000000 m /period glyphshow
9.541016 0.000000 m /zero glyphshow
grestore
gsave
/o {
gsave
newpath
translate
0.8 setlinewidth
1 setlinejoin
0 setlinecap
0 0 m
0 -3.5 l

gsave
0.000 setgray
fill
grestore
stroke
grestore
} bind def
163.993 38.016 o
grestore
gsave
156.040107 23.422250 translate
0.000000 rotate
0.000000 0.000000 m /zero glyphshow
6.362305 0.000000 m /period glyphshow
9.541016 0.000000 m /two glyphshow
grestore
gsave
/o {
gsave
newpath
translate
0.8 setlinewidth
1 setlinejoin
0 setlinecap
0 0 m
0 -3.5 l

gsave
0.000 setgray
fill
grestore
stroke
grestore
} bind def
212.104 38.016 o
grestore
gsave
204.151286 23.422250 translate
0.000000 rotate
0.000000 0.000000 m /zero glyphshow
6.362305 0.000000 m /period glyphshow
9.541016 0.000000 m /four glyphshow
grestore
gsave
/o {
gsave
newpath
translate
0.8 setlinewidth
1 setlinejoin
0 setlinecap
0 0 m
0 -3.5 l

gsave
0.000 setgray
fill
grestore
stroke
grestore
} bind def
260.216 38.016 o
grestore
gsave
252.262464 23.422250 translate
0.000000 rotate
0.000000 0.000000 m /zero glyphshow
6.362305 0.000000 m /period glyphshow
9.541016 0.000000 m /six glyphshow
grestore
gsave
/o {
gsave
newpath
translate
0.8 setlinewidth
1 setlinejoin
0 setlinecap
0 0 m
0 -3.5 l

gsave
0.000 setgray
fill
grestore
stroke
grestore
} bind def
308.327 38.016 o
grestore
gsave
300.373643 23.422250 translate
0.000000 rotate
0.000000 0.000000 m /zero glyphshow
6.362305 0.000000 m /period glyphshow
9.541016 0.000000 m /eight glyphshow
grestore
gsave
/o {
gsave
newpath
translate
0.8 setlinewidth
1 setlinejoin
0 setlinecap
0 0 m
0 -3.5 l

gsave
0.000 setgray
fill
grestore
stroke
grestore
} bind def
356.438 38.016 o
grestore
gsave
348.484821 23.422250 translate
0.000000 rotate
0.000000 0.000000 m /one glyphshow
6.362305 0.000000 m /period glyphshow
9.541016 0.000000 m /zero glyphshow
grestore
/DejaVuSans findfont
18.000 scalefont
setfont
gsave
151.160000 3.672250 translate
0.000000 rotate
0.000000 0.000000 m /F glyphshow
10.337891 0.000000 m /a glyphshow
21.368164 0.000000 m /l glyphshow
26.369141 0.000000 m /s glyphshow
35.747070 0.000000 m /e glyphshow
46.821289 0.000000 m /space glyphshow
52.542969 0.000000 m /P glyphshow
63.397461 0.000000 m /o glyphshow
74.410156 0.000000 m /s glyphshow
83.788086 0.000000 m /i glyphshow
88.789062 0.000000 m /t glyphshow
95.846680 0.000000 m /i glyphshow
100.847656 0.000000 m /v glyphshow
111.500000 0.000000 m /e glyphshow
122.574219 0.000000 m /space glyphshow
128.295898 0.000000 m /R glyphshow
140.802734 0.000000 m /a glyphshow
151.833008 0.000000 m /t glyphshow
158.890625 0.000000 m /e glyphshow
grestore
gsave
/o {
gsave
newpath
translate
0.8 setlinewidth
1 setlinejoin
0 setlinecap
0 0 m
-3.5 0 l

gsave
0.000 setgray
fill
grestore
stroke
grestore
} bind def
103.854 50.112 o
grestore
/DejaVuSans findfont
10.000 scalefont
setfont
gsave
80.948009 46.315125 translate
0.000000 rotate
0.000000 0.000000 m /zero glyphshow
6.362305 0.000000 m /period glyphshow
9.541016 0.000000 m /zero glyphshow
grestore
gsave
/o {
gsave
newpath
translate
0.8 setlinewidth
1 setlinejoin
0 setlinecap
0 0 m
-3.5 0 l

gsave
0.000 setgray
fill
grestore
stroke
grestore
} bind def
103.854 98.2232 o
grestore
gsave
80.948009 94.426304 translate
0.000000 rotate
0.000000 0.000000 m /zero glyphshow
6.362305 0.000000 m /period glyphshow
9.541016 0.000000 m /two glyphshow
grestore
gsave
/o {
gsave
newpath
translate
0.8 setlinewidth
1 setlinejoin
0 setlinecap
0 0 m
-3.5 0 l

gsave
0.000 setgray
fill
grestore
stroke
grestore
} bind def
103.854 146.334 o
grestore
gsave
80.948009 142.537482 translate
0.000000 rotate
0.000000 0.000000 m /zero glyphshow
6.362305 0.000000 m /period glyphshow
9.541016 0.000000 m /four glyphshow
grestore
gsave
/o {
gsave
newpath
translate
0.8 setlinewidth
1 setlinejoin
0 setlinecap
0 0 m
-3.5 0 l

gsave
0.000 setgray
fill
grestore
stroke
grestore
} bind def
103.854 194.446 o
grestore
gsave
80.948009 190.648661 translate
0.000000 rotate
0.000000 0.000000 m /zero glyphshow
6.362305 0.000000 m /period glyphshow
9.541016 0.000000 m /six glyphshow
grestore
gsave
/o {
gsave
newpath
translate
0.8 setlinewidth
1 setlinejoin
0 setlinecap
0 0 m
-3.5 0 l

gsave
0.000 setgray
fill
grestore
stroke
grestore
} bind def
103.854 242.557 o
grestore
gsave
80.948009 238.759839 translate
0.000000 rotate
0.000000 0.000000 m /zero glyphshow
6.362305 0.000000 m /period glyphshow
9.541016 0.000000 m /eight glyphshow
grestore
gsave
/o {
gsave
newpath
translate
0.8 setlinewidth
1 setlinejoin
0 setlinecap
0 0 m
-3.5 0 l

gsave
0.000 setgray
fill
grestore
stroke
grestore
} bind def
103.854 290.668 o
grestore
gsave
80.948009 286.871018 translate
0.000000 rotate
0.000000 0.000000 m /one glyphshow
6.362305 0.000000 m /period glyphshow
9.541016 0.000000 m /zero glyphshow
grestore
/DejaVuSans findfont
18.000 scalefont
setfont
gsave
73.198009 89.056375 translate
90.000000 rotate
0.000000 0.000000 m /T glyphshow
10.963867 0.000000 m /r glyphshow
18.364258 0.000000 m /u glyphshow
29.772461 0.000000 m /e glyphshow
40.846680 0.000000 m /space glyphshow
46.568359 0.000000 m /P glyphshow
57.422852 0.000000 m /o glyphshow
68.435547 0.000000 m /s glyphshow
77.813477 0.000000 m /i glyphshow
82.814453 0.000000 m /t glyphshow
89.872070 0.000000 m /i glyphshow
94.873047 0.000000 m /v glyphshow
105.525391 0.000000 m /e glyphshow
116.599609 0.000000 m /space glyphshow
122.321289 0.000000 m /R glyphshow
134.828125 0.000000 m /a glyphshow
145.858398 0.000000 m /t glyphshow
152.916016 0.000000 m /e glyphshow
grestore
0.500 setlinewidth
2 setlinecap
0.550 setgray
gsave
264.6 266.1 103.9 38.02 clipbox
356.437946 290.667893 m
352.829608 290.667893 l
352.829608 290.667893 l
352.829608 290.667893 l
348.980714 290.667893 l
348.980714 290.667893 l
348.980714 290.667893 l
345.372375 290.667893 l
345.372375 290.667893 l
345.372375 290.667893 l
341.523481 290.667893 l
341.523481 290.667893 l
341.523481 290.667893 l
245.301124 290.667893 l
245.301124 290.667893 l
245.301124 287.059554 l
219.561643 287.059554 l
219.561643 287.059554 l
219.561643 283.21066 l
189.973269 283.21066 l
189.973269 283.21066 l
189.973269 275.753427 l
189.973269 275.753427 l
186.124374 275.753427 l
186.124374 275.753427 l
186.124374 268.536751 l
186.124374 268.536751 l
178.907698 268.536751 l
178.907698 268.536751 l
178.907698 264.687856 l
178.907698 264.687856 l
156.536 264.687856 l
156.536 264.687856 l
156.536 261.079518 l
156.536 261.079518 l
152.927661 261.079518 l
152.927661 261.079518 l
152.927661 246.165053 l
152.927661 246.165053 l
149.078767 246.165053 l
149.078767 231.491143 l
145.470428 227.642249 l
145.470428 227.642249 l
145.470428 224.03391 l
145.470428 224.03391 l
138.013196 224.03391 l
138.013196 209.360001 l
138.013196 209.360001 l
134.404857 209.360001 l
134.404857 209.360001 l
134.404857 205.511107 l
134.404857 205.511107 l
130.796519 205.511107 l
130.796519 190.837197 l
130.796519 190.837197 l
126.947625 190.837197 l
126.947625 190.837197 l
126.947625 172.314393 l
126.947625 172.314393 l
123.339286 172.314393 l
123.339286 172.314393 l
119.490392 168.465499 l
119.490392 57.569233 l
119.490392 57.569233 l
115.882054 57.569233 l
115.882054 57.569233 l
115.882054 50.112 l
115.882054 50.112 l
stroke
grestore
gsave
264.6 266.1 103.9 38.02 clipbox
356.437946 290.667893 m
352.829608 290.667893 l
352.829608 290.667893 l
352.829608 290.667893 l
345.372375 290.667893 l
345.372375 290.667893 l
345.372375 290.667893 l
341.523481 290.667893 l
341.523481 290.667893 l
341.523481 290.667893 l
286.195626 290.667893 l
286.195626 290.667893 l
286.195626 283.21066 l
286.195626 283.21066 l
256.607251 283.21066 l
256.607251 279.602322 l
256.607251 279.602322 l
230.627214 279.602322 l
230.627214 279.602322 l
230.627214 272.145089 l
230.627214 272.145089 l
219.561643 272.145089 l
219.561643 268.536751 l
219.561643 268.536751 l
204.647178 268.536751 l
204.647178 268.536751 l
204.647178 261.079518 l
204.647178 261.079518 l
201.03884 261.079518 l
201.03884 261.079518 l
197.189945 257.471179 l
197.189945 257.471179 l
197.189945 253.622285 l
197.189945 253.622285 l
193.581607 253.622285 l
193.581607 253.622285 l
193.581607 250.013947 l
193.581607 250.013947 l
186.124374 250.013947 l
186.124374 250.013947 l
186.124374 246.165053 l
171.450465 246.165053 l
171.450465 246.165053 l
171.450465 238.948376 l
171.450465 238.948376 l
167.601571 238.948376 l
167.601571 238.948376 l
167.601571 227.642249 l
167.601571 227.642249 l
163.993232 227.642249 l
163.993232 227.642249 l
163.993232 224.03391 l
163.993232 224.03391 l
160.384894 224.03391 l
160.384894 224.03391 l
156.536 220.425572 l
156.536 220.425572 l
152.927661 220.425572 l
152.927661 220.425572 l
152.927661 194.445536 l
152.927661 194.445536 l
149.078767 194.445536 l
149.078767 194.445536 l
149.078767 190.837197 l
149.078767 190.837197 l
141.86209 190.837197 l
141.86209 190.837197 l
141.86209 183.379965 l
141.86209 183.379965 l
138.013196 183.379965 l
138.013196 183.379965 l
138.013196 161.248822 l
138.013196 161.248822 l
134.404857 157.399928 l
134.404857 157.399928 l
130.796519 157.399928 l
126.947625 153.79159 l
126.947625 153.79159 l
126.947625 113.137644 l
123.339286 113.137644 l
123.339286 113.137644 l
123.339286 105.680411 l
123.339286 105.680411 l
119.490392 105.680411 l
119.490392 105.680411 l
119.490392 101.831517 l
119.490392 101.831517 l
115.882054 98.223179 l
115.882054 50.112 l
115.882054 50.112 l
stroke
grestore
gsave
264.6 266.1 103.9 38.02 clipbox
356.437946 290.667893 m
352.829608 290.667893 l
352.829608 290.667893 l
352.829608 290.667893 l
337.915143 290.667893 l
337.915143 290.667893 l
337.915143 287.059554 l
337.915143 287.059554 l
300.869535 287.059554 l
300.869535 287.059554 l
300.869535 279.602322 l
256.607251 279.602322 l
256.607251 279.602322 l
256.607251 275.753427 l
256.607251 275.753427 l
245.301124 275.753427 l
245.301124 275.753427 l
245.301124 268.536751 l
230.627214 268.536751 l
230.627214 268.536751 l
230.627214 264.687856 l
230.627214 264.687856 l
219.561643 264.687856 l
219.561643 264.687856 l
219.561643 261.079518 l
208.496072 261.079518 l
208.496072 261.079518 l
208.496072 253.622285 l
208.496072 253.622285 l
204.647178 250.013947 l
204.647178 250.013947 l
204.647178 246.165053 l
204.647178 246.165053 l
201.03884 246.165053 l
201.03884 242.556714 l
201.03884 242.556714 l
193.581607 242.556714 l
193.581607 242.556714 l
193.581607 224.03391 l
193.581607 224.03391 l
189.973269 224.03391 l
189.973269 216.576678 l
189.973269 216.576678 l
186.124374 212.968339 l
178.907698 212.968339 l
178.907698 212.968339 l
175.058803 209.360001 l
175.058803 209.360001 l
175.058803 198.053874 l
175.058803 198.053874 l
171.450465 198.053874 l
171.450465 198.053874 l
171.450465 179.53107 l
145.470428 179.53107 l
145.470428 179.53107 l
145.470428 168.465499 l
145.470428 168.465499 l
141.86209 168.465499 l
141.86209 168.465499 l
141.86209 131.419892 l
141.86209 131.419892 l
134.404857 131.419892 l
134.404857 131.419892 l
134.404857 127.811553 l
134.404857 127.811553 l
130.796519 127.811553 l
130.796519 127.811553 l
130.796519 124.203215 l
126.947625 120.354321 l
126.947625 120.354321 l
123.339286 120.354321 l
123.339286 120.354321 l
123.339286 105.680411 l
123.339286 105.680411 l
115.882054 105.680411 l
115.882054 105.680411 l
115.882054 50.112 l
115.882054 50.112 l
stroke
grestore
gsave
264.6 266.1 103.9 38.02 clipbox
356.437946 290.667893 m
352.829608 290.667893 l
352.829608 290.667893 l
352.829608 290.667893 l
345.372375 290.667893 l
345.372375 290.667893 l
345.372375 290.667893 l
341.523481 290.667893 l
341.523481 290.667893 l
341.523481 290.667893 l
337.915143 290.667893 l
337.915143 290.667893 l
337.915143 290.667893 l
334.306804 290.667893 l
334.306804 290.667893 l
334.306804 290.667893 l
330.45791 290.667893 l
330.45791 290.667893 l
330.45791 290.667893 l
326.849572 290.667893 l
326.849572 290.667893 l
326.849572 290.667893 l
323.241233 290.667893 l
323.241233 290.667893 l
323.241233 290.667893 l
319.392339 290.667893 l
319.392339 290.667893 l
319.392339 290.667893 l
311.935106 290.667893 l
311.935106 290.667893 l
311.935106 290.667893 l
308.326768 290.667893 l
308.326768 290.667893 l
308.326768 290.667893 l
304.718429 290.667893 l
304.718429 290.667893 l
304.718429 290.667893 l
267.672822 290.667893 l
267.672822 290.667893 l
267.672822 287.059554 l
267.672822 287.059554 l
263.823928 287.059554 l
263.823928 287.059554 l
263.823928 283.21066 l
249.150018 283.21066 l
249.150018 283.21066 l
249.150018 279.602322 l
249.150018 279.602322 l
245.301124 279.602322 l
245.301124 279.602322 l
245.301124 275.753427 l
245.301124 275.753427 l
219.561643 275.753427 l
219.561643 275.753427 l
219.561643 268.536751 l
219.561643 268.536751 l
215.712749 268.536751 l
215.712749 268.536751 l
215.712749 264.687856 l
215.712749 264.687856 l
208.496072 264.687856 l
208.496072 264.687856 l
204.647178 261.079518 l
204.647178 261.079518 l
204.647178 253.622285 l
204.647178 253.622285 l
186.124374 253.622285 l
186.124374 253.622285 l
186.124374 250.013947 l
186.124374 250.013947 l
182.516036 250.013947 l
182.516036 246.165053 l
182.516036 246.165053 l
178.907698 246.165053 l
178.907698 246.165053 l
178.907698 242.556714 l
171.450465 242.556714 l
171.450465 242.556714 l
171.450465 238.948376 l
171.450465 238.948376 l
163.993232 238.948376 l
163.993232 238.948376 l
163.993232 220.425572 l
163.993232 220.425572 l
160.384894 220.425572 l
160.384894 220.425572 l
160.384894 212.968339 l
160.384894 212.968339 l
156.536 212.968339 l
156.536 212.968339 l
156.536 186.988303 l
156.536 186.988303 l
152.927661 186.988303 l
152.927661 186.988303 l
152.927661 161.248822 l
152.927661 161.248822 l
141.86209 161.248822 l
141.86209 161.248822 l
141.86209 142.726019 l
138.013196 142.726019 l
138.013196 142.726019 l
138.013196 135.268786 l
138.013196 135.268786 l
134.404857 135.268786 l
134.404857 127.811553 l
130.796519 127.811553 l
130.796519 127.811553 l
130.796519 109.28875 l
130.796519 109.28875 l
126.947625 105.680411 l
126.947625 101.831517 l
126.947625 101.831517 l
123.339286 101.831517 l
123.339286 101.831517 l
123.339286 83.308713 l
123.339286 83.308713 l
119.490392 83.308713 l
119.490392 83.308713 l
119.490392 65.026465 l
119.490392 65.026465 l
115.882054 65.026465 l
115.882054 65.026465 l
115.882054 50.112 l
115.882054 50.112 l
stroke
grestore
gsave
264.6 266.1 103.9 38.02 clipbox
356.437946 290.667893 m
352.829608 290.667893 l
352.829608 290.667893 l
352.829608 290.667893 l
348.980714 290.667893 l
348.980714 290.667893 l
348.980714 290.667893 l
345.372375 290.667893 l
345.372375 290.667893 l
345.372375 290.667893 l
334.306804 290.667893 l
334.306804 290.667893 l
334.306804 287.059554 l
334.306804 287.059554 l
282.346731 287.059554 l
282.346731 287.059554 l
282.346731 279.602322 l
282.346731 279.602322 l
245.301124 279.602322 l
245.301124 279.602322 l
245.301124 275.753427 l
245.301124 275.753427 l
230.627214 275.753427 l
230.627214 275.753427 l
227.018876 272.145089 l
227.018876 272.145089 l
219.561643 272.145089 l
219.561643 272.145089 l
219.561643 264.687856 l
219.561643 264.687856 l
215.712749 261.079518 l
215.712749 261.079518 l
193.581607 261.079518 l
193.581607 261.079518 l
193.581607 257.471179 l
193.581607 257.471179 l
182.516036 257.471179 l
182.516036 257.471179 l
182.516036 242.556714 l
182.516036 242.556714 l
178.907698 242.556714 l
178.907698 242.556714 l
178.907698 235.099481 l
178.907698 235.099481 l
171.450465 235.099481 l
171.450465 235.099481 l
167.601571 231.491143 l
160.384894 231.491143 l
160.384894 231.491143 l
160.384894 227.642249 l
160.384894 227.642249 l
156.536 227.642249 l
156.536 227.642249 l
156.536 216.576678 l
156.536 216.576678 l
152.927661 216.576678 l
152.927661 216.576678 l
152.927661 212.968339 l
152.927661 212.968339 l
145.470428 212.968339 l
145.470428 212.968339 l
145.470428 201.902768 l
145.470428 201.902768 l
138.013196 201.902768 l
138.013196 168.465499 l
138.013196 168.465499 l
134.404857 168.465499 l
134.404857 168.465499 l
134.404857 153.79159 l
134.404857 153.79159 l
130.796519 153.79159 l
130.796519 153.79159 l
130.796519 146.334357 l
130.796519 146.334357 l
123.339286 146.334357 l
123.339286 146.334357 l
123.339286 135.268786 l
123.339286 135.268786 l
119.490392 135.268786 l
119.490392 135.268786 l
119.490392 113.137644 l
115.882054 113.137644 l
115.882054 50.112 l
115.882054 50.112 l
stroke
grestore
2.000 setlinewidth
0.000 0.000 1.000 setrgbcolor
gsave
264.6 266.1 103.9 38.02 clipbox
115.882054 61.659307 m
119.490392 104.969786 l
123.339286 125.514746 l
126.947625 137.752655 l
130.796519 150.400435 l
134.404857 158.280385 l
138.013196 168.720346 l
141.86209 173.824709 l
145.470428 191.517219 l
149.078767 197.180551 l
152.927661 212.585558 l
156.536 216.698347 l
160.384894 222.382408 l
163.993232 226.150023 l
167.601571 243.118782 l
171.450465 235.447235 l
175.058803 238.853872 l
178.907698 241.673187 l
182.516036 253.192721 l
186.124374 248.88133 l
189.973269 251.884746 l
193.581607 256.197542 l
197.189945 259.288713 l
201.03884 260.454073 l
204.647178 263.384233 l
208.496072 266.860557 l
212.104411 268.476612 l
215.712749 268.180728 l
219.561643 271.682151 l
223.169982 274.358203 l
227.018876 274.358203 l
230.627214 276.014708 l
234.235553 277.341096 l
238.084447 277.341096 l
241.692786 277.341096 l
245.301124 279.871182 l
249.150018 281.615395 l
252.758357 281.767325 l
256.607251 282.186694 l
260.215589 283.258771 l
263.823928 284.004494 l
267.672822 284.162192 l
271.28116 285.135107 l
275.130055 283.270799 l
278.738393 284.750218 l
282.346731 285.744124 l
286.195626 286.922094 l
289.803964 286.999415 l
293.412302 287.733111 l
297.261197 287.733111 l
300.869535 288.71939 l
304.718429 289.224557 l
308.326768 289.224557 l
311.935106 289.224557 l
315.784 288.863723 l
319.392339 289.224557 l
323.241233 289.224557 l
326.849572 289.224557 l
330.45791 289.224557 l
334.306804 289.791582 l
337.915143 290.319946 l
341.523481 290.667893 l
345.372375 290.667893 l
348.980714 290.667893 l
352.829608 290.667893 l
356.437946 290.667893 l
stroke
grestore
1.000 setlinewidth
1.000 0.000 0.000 setrgbcolor
gsave
264.6 266.1 103.9 38.02 clipbox
356.437946 290.667893 m
346.815711 290.667893 l
343.207372 289.946225 l
331.420134 289.946225 l
329.25513 289.224557 l
315.784 289.224557 l
312.89733 288.50289 l
309.288991 288.50289 l
306.161765 287.781222 l
298.945088 287.781222 l
298.22342 286.337887 l
294.374526 286.337887 l
294.374526 286.337887 l
292.209523 284.653995 l
290.766188 283.932328 l
283.308955 283.932328 l
278.978949 283.21066 l
275.370611 283.21066 l
273.686719 282.488992 l
271.521716 281.767325 l
270.078381 281.045657 l
265.748375 281.045657 l
265.748375 280.323989 l
265.026707 280.323989 l
261.177813 279.602322 l
259.734477 278.880654 l
256.126139 278.158986 l
253.961136 276.715651 l
253.961136 273.588424 l
247.225571 273.588424 l
245.782236 272.145089 l
240.490006 272.145089 l
239.046671 270.701754 l
236.881668 269.258418 l
235.438332 269.258418 l
234.716665 268.536751 l
233.273329 266.371748 l
232.551662 264.928412 l
231.108326 263.485077 l
227.9811 261.801186 l
227.9811 261.079518 l
227.9811 261.079518 l
225.816097 261.079518 l
225.816097 260.35785 l
224.372761 260.35785 l
222.929426 259.636183 l
220.042755 259.636183 l
219.080532 258.192847 l
216.193861 257.471179 l
214.750526 256.749512 l
212.585523 256.749512 l
210.420519 255.306176 l
208.014961 254.584509 l
200.798284 254.584509 l
199.354948 253.862841 l
198.633281 253.141173 l
198.633281 251.457282 l
198.633281 251.457282 l
197.671057 251.457282 l
196.949389 250.735615 l
196.949389 250.735615 l
195.506054 250.013947 l
194.784386 249.292279 l
194.784386 248.570611 l
193.341051 247.127276 l
190.45438 247.127276 l
188.289377 244.962273 l
186.605486 244.962273 l
184.440483 242.79727 l
183.718815 241.113379 l
182.27548 240.391711 l
181.553812 240.391711 l
180.832145 238.948376 l
180.832145 238.948376 l
179.388809 238.226708 l
179.388809 238.226708 l
177.945474 238.226708 l
177.945474 236.783373 l
174.09658 236.783373 l
171.931577 236.061705 l
171.209909 236.061705 l
171.209909 236.061705 l
170.488241 235.340037 l
170.488241 235.340037 l
170.488241 233.896702 l
169.766574 233.175034 l
169.766574 233.175034 l
169.766574 230.047808 l
169.044906 229.32614 l
168.323238 227.161137 l
166.879903 226.439469 l
166.879903 226.439469 l
166.879903 222.831131 l
166.158235 222.831131 l
165.436568 222.109463 l
165.436568 222.109463 l
163.752676 222.109463 l
163.752676 218.982237 l
160.866006 218.982237 l
160.144338 218.260569 l
160.144338 215.373898 l
159.42267 214.652231 l
159.42267 211.043892 l
159.42267 211.043892 l
158.701003 209.600557 l
158.701003 209.600557 l
158.701003 208.878889 l
157.257667 205.751663 l
157.257667 205.751663 l
157.257667 202.864992 l
155.814332 202.864992 l
155.814332 201.421657 l
155.092664 201.421657 l
155.092664 200.699989 l
154.370996 200.699989 l
153.408773 199.978321 l
151.965438 199.978321 l
151.965438 199.256653 l
151.24377 198.534986 l
151.24377 198.534986 l
151.24377 196.129427 l
151.24377 196.129427 l
149.800435 194.686092 l
149.800435 194.686092 l
149.800435 193.964424 l
149.078767 193.242756 l
149.078767 191.077753 l
148.357099 191.077753 l
148.357099 191.077753 l
147.635431 190.356085 l
147.635431 190.356085 l
146.913764 190.356085 l
146.913764 189.634418 l
146.192096 188.91275 l
146.192096 188.91275 l
146.192096 185.785523 l
145.470428 185.063856 l
145.470428 183.62052 l
144.748761 183.62052 l
144.748761 182.177185 l
143.06487 182.177185 l
143.06487 180.73385 l
141.621534 180.012182 l
140.899866 179.290514 l
140.178199 179.290514 l
140.178199 178.568847 l
140.178199 178.568847 l
139.456531 177.847179 l
139.456531 173.276617 l
138.734863 173.276617 l
138.734863 167.503276 l
138.734863 167.503276 l
137.291528 167.503276 l
136.56986 166.781608 l
136.56986 166.781608 l
136.56986 161.489378 l
135.848193 161.489378 l
135.126525 158.602708 l
135.126525 157.88104 l
135.126525 157.88104 l
134.404857 157.159372 l
134.404857 153.310478 l
133.68319 151.145475 l
133.68319 146.093801 l
132.961522 144.650466 l
132.961522 142.244907 l
131.999298 142.244907 l
131.999298 140.079904 l
131.277631 139.358236 l
131.277631 139.358236 l
131.277631 138.636569 l
130.555963 137.914901 l
130.555963 128.292665 l
129.112628 127.570997 l
129.112628 121.797656 l
129.112628 121.797656 l
128.39096 121.797656 l
128.39096 117.948762 l
128.39096 117.948762 l
127.669292 116.505426 l
127.669292 109.048194 l
126.947625 108.326526 l
126.947625 108.326526 l
126.947625 103.99652 l
126.947625 103.99652 l
125.504289 103.99652 l
125.504289 99.666514 l
124.782622 98.70429 l
124.782622 98.70429 l
124.782622 93.652617 l
124.782622 93.652617 l
124.060954 93.652617 l
124.060954 93.652617 l
124.060954 89.322611 l
123.339286 89.322611 l
123.339286 84.752049 l
122.617619 84.030381 l
122.617619 81.14371 l
122.617619 81.14371 l
121.895951 81.14371 l
121.895951 81.14371 l
121.895951 80.422042 l
121.895951 80.422042 l
120.21206 80.422042 l
120.21206 78.978707 l
120.21206 78.978707 l
119.490392 78.257039 l
119.490392 67.913136 l
119.490392 67.913136 l
118.047057 67.913136 l
118.047057 67.913136 l
118.047057 64.064242 l
118.047057 64.064242 l
117.325389 64.064242 l
117.325389 64.064242 l
117.325389 57.569233 l
117.325389 57.569233 l
116.603721 57.569233 l
116.603721 57.569233 l
116.603721 50.833668 l
116.603721 50.833668 l
115.882054 50.833668 l
115.882054 50.833668 l
115.882054 50.112 l
115.882054 50.112 l
stroke
grestore
0 setlinecap
[3.7 1.6] 0 setdash
0.000 setgray
gsave
264.6 266.1 103.9 38.02 clipbox
115.882054 50.112 m
356.437946 290.667893 l
stroke
grestore
0.800 setlinewidth
0 setlinejoin
2 setlinecap
[] 0 setdash
gsave
103.854259 38.016 m
103.854259 304.128 l
stroke
grestore
gsave
368.465741 38.016 m
368.465741 304.128 l
stroke
grestore
gsave
103.854259 38.016 m
368.465741 38.016 l
stroke
grestore
gsave
103.854259 304.128 m
368.465741 304.128 l
stroke
grestore
/DejaVuSans findfont
22.000 scalefont
setfont
gsave
176.238125 310.128000 translate
0.000000 rotate
0.000000 0.000000 m /R glyphshow
15.286133 0.000000 m /O glyphshow
32.602539 0.000000 m /C glyphshow
47.963867 0.000000 m /space glyphshow
54.957031 0.000000 m /C glyphshow
70.318359 0.000000 m /u glyphshow
84.261719 0.000000 m /r glyphshow
93.306641 0.000000 m /v glyphshow
106.326172 0.000000 m /e glyphshow
grestore

end
showpage
