\relax 
\citation{c1}
\citation{c17}
\citation{c16}
\citation{c3}
\citation{c4}
\citation{c5,c7}
\citation{c5}
\citation{c7}
\citation{c22}
\@writefile{toc}{\contentsline {section}{\numberline {I}INTRODUCTION}{1}}
\@writefile{toc}{\contentsline {section}{\numberline {II}METHODS}{1}}
\@writefile{toc}{\contentsline {subsection}{\numberline {II-A}Model Design}{1}}
\citation{c15}
\citation{c15}
\citation{c21}
\citation{c7}
\citation{c18,c19,c20}
\citation{c2}
\citation{c8}
\citation{c9}
\citation{c12}
\citation{c2}
\citation{c13}
\citation{c14}
\citation{c9}
\@writefile{lof}{\contentsline {figure}{\numberline {1}{\ignorespaces Prediction of hydrogen exchanged residues using random forest.}}{2}}
\newlabel{fig:Flowchart}{{1}{2}}
\@writefile{toc}{\contentsline {subsection}{\numberline {II-B}Data Collection}{2}}
\@writefile{toc}{\contentsline {subsection}{\numberline {II-C}Backbone Amide Hydrogen Bonding}{2}}
\@writefile{toc}{\contentsline {subsection}{\numberline {II-D}Protein Secondary Structure}{2}}
\@writefile{toc}{\contentsline {subsection}{\numberline {II-E}Coulombic Interactions}{2}}
\@writefile{toc}{\contentsline {subsection}{\numberline {II-F}Solvent Accessibility}{2}}
\citation{c3}
\citation{c12}
\citation{c23}
\citation{c5}
\@writefile{toc}{\contentsline {subsection}{\numberline {II-G}Proximal Residues}{3}}
\@writefile{toc}{\contentsline {section}{\numberline {III}RESULTS AND DISCUSSION}{3}}
\@writefile{toc}{\contentsline {subsection}{\numberline {III-A}Performance}{3}}
\@writefile{lot}{\contentsline {table}{\numberline {I}{\ignorespaces }}{3}}
\newlabel{tab:rfperf}{{I}{3}}
\@writefile{lof}{\contentsline {figure}{\numberline {2}{\ignorespaces Random forest variable importance plots.}}{3}}
\newlabel{fig:varimp_hdrf}{{2}{3}}
\@writefile{lof}{\contentsline {figure}{\numberline {3}{\ignorespaces Receiver operating characteristic (ROC) curve.}}{3}}
\newlabel{fig:roc}{{3}{3}}
\@writefile{toc}{\contentsline {subsection}{\numberline {III-B}Discussion}{3}}
\@writefile{toc}{\contentsline {subsubsection}{\numberline {III-B.1}Experimental Artifacts}{3}}
\bibstyle{ieeetr}
\bibdata{citation}
\bibcite{c1}{1}
\bibcite{c17}{2}
\bibcite{c16}{3}
\bibcite{c3}{4}
\bibcite{c4}{5}
\bibcite{c5}{6}
\bibcite{c7}{7}
\bibcite{c22}{8}
\bibcite{c15}{9}
\bibcite{c21}{10}
\bibcite{c18}{11}
\bibcite{c19}{12}
\bibcite{c20}{13}
\bibcite{c2}{14}
\bibcite{c8}{15}
\bibcite{c9}{16}
\bibcite{c12}{17}
\bibcite{c13}{18}
\bibcite{c14}{19}
\bibcite{c23}{20}
\@writefile{toc}{\contentsline {subsubsection}{\numberline {III-B.2}Hydrogen Bonding}{4}}
\@writefile{toc}{\contentsline {section}{\numberline {IV}CONCLUSION}{4}}
\@writefile{toc}{\contentsline {section}{\numberline {V}ACKNOWLEDGMENTS}{4}}
\@writefile{toc}{\contentsline {section}{References}{4}}
