1.000,1.0
0.985,1.0
0.954,1.0
0.938,1.0
0.923,1.0
0.908,1.0
0.892,1.0
0.877,1.0
0.862,1.0
0.846,1.0
0.815,1.0
0.800,1.0
0.785,1.0
0.769,1.0
0.754,1.0
0.738,1.0
0.723,1.0
0.708,1.0
0.692,1.0
0.677,1.0
0.646,1.0
0.631,0.9877777777777774
0.615,0.9844999999999997
0.600,0.969
0.585,0.969
0.569,0.9689999999999999
0.554,0.9658421052631578
0.538,0.9514193548387098
0.523,0.9380000000000002
0.508,0.938
0.492,0.9379999999999998
0.477,0.938
0.462,0.938
0.446,0.9380000000000001
0.431,0.9195384615384614
0.415,0.9016
0.385,0.8919999999999999
0.369,0.8686111111111106
0.354,0.846
0.338,0.846
0.323,0.8459999999999999
0.308,0.846
0.292,0.8426666666666667
0.277,0.8172857142857141
0.262,0.81125
0.246,0.8
0.231,0.7965384615384614
0.215,0.785
0.200,0.7473684210526317
0.185,0.6861176470588233
0.169,0.6118970588235303
0.154,0.5205600000000001
0.138,0.462
0.123,0.46199999999999986
0.092,0.36818749999999995
0.077,0.338125
0.062,0.292
0.046,0.21599999999999997
0.031,0.1744054054054054
0.015,0.10122500000000001
0.000,0.013041095890410966
0.108,0.4361132075471693
