0,0.048002593,0.01589363,0.080111555
0.015,0.228045902,0.157077418,0.299014387
0.031,0.313452085,0.197751757,0.429152414
0.046,0.364325536,0.253067246,0.475583826
0.062,0.416902841,0.30454143,0.529264252
0.077,0.449660093,0.33250441,0.566815776
0.092,0.493059409,0.364144779,0.62197404
0.108,0.51427844,0.427065829,0.601491052
0.123,0.587826877,0.491817229,0.683836526
0.138,0.611369565,0.498829685,0.723909445
0.154,0.675408764,0.558881161,0.791936367
0.169,0.692505785,0.57657575,0.80843582
0.185,0.716134641,0.602772433,0.829496848
0.2,0.731796761,0.618681593,0.84491193
0.215,0.802336538,0.749298695,0.855374382
0.231,0.770445623,0.673263306,0.867627941
0.246,0.784607143,0.70477811,0.864436176
0.262,0.796327143,0.723836349,0.868817937
0.277,0.844214286,0.806446399,0.881982172
0.292,0.826291667,0.744556755,0.908026579
0.308,0.838776984,0.757540553,0.920013415
0.323,0.856705441,0.790704158,0.922706725
0.338,0.869555556,0.81382893,0.925282181
0.354,0.8744,0.819870742,0.928929258
0.369,0.886580787,0.839602567,0.933559007
0.385,0.901032,0.863400682,0.938663318
0.4,0.90775,0.87019088,0.94530912
0.415,0.90652,0.872836152,0.940203848
0.431,0.921075549,0.889670735,0.952480364
0.446,0.9322,0.901846088,0.962553912
0.462,0.9322,0.901846088,0.962553912
0.477,0.939086154,0.912780398,0.965391909
0.492,0.9446,0.919511357,0.969688643
0.508,0.9446,0.919511357,0.969688643
0.523,0.9446,0.919511357,0.969688643
0.538,0.955117664,0.931577789,0.978657539
0.554,0.962368421,0.941573791,0.983163051
0.569,0.963,0.942061996,0.983938004
0.585,0.964743333,0.945568953,0.983917713
0.6,0.9692,0.952402381,0.985997619
0.615,0.9723,0.954429354,0.990170646
0.631,0.972955556,0.954595965,0.991315146
0.646,0.977,0.954,1
0.662,0.96925,0.950470024,0.988029976
0.677,0.9754,0.954580778,0.996219222
0.692,0.979531707,0.961507087,0.997556328
0.708,0.984428571,0.965644623,1.00321252
0.723,0.98475,0.965970024,1.003529976
0.738,0.9878,0.969929354,1.005670646
0.754,0.9878,0.969929354,1.005670646
0.769,0.9919,0.981438643,1.002361357
0.785,0.994,0.986651531,1.001348469
0.8,0.994,0.986651531,1.001348469
0.815,0.994,0.986651531,1.001348469
0.831,0.9925,0.985,1
0.846,0.994,0.986651531,1.001348469
0.862,0.994,0.986651531,1.001348469
0.877,0.994,0.986651531,1.001348469
0.892,0.994,0.986651531,1.001348469
0.908,0.996357143,0.990543717,1.002170569
0.923,0.998553571,0.995660714,1.001446429
0.938,1,1,1
0.954,1,1,1
0.969,1,1,1
0.985,1,1,1
1,1,1,1
