dataset43,1joo,LEU,25,0.394
dataset91,1rbx,TYR,73,0.194
dataset74,2crt,TYR,51,0.500
dataset62,2vil,ALA,108,0.147
dataset31,1onc,VAL,96,0.179
dataset30,1lz1,CYS,30,0.500
dataset22,1hce,THR,47,0.079
dataset60,1ubq,THR,55,0.059
dataset1,2abd,ALA,9,0.115
dataset30,1lz1,ARG,14,0.243
dataset28,2eql,LEU,8,0.135
dataset57,1e3y,LYS,120,0.127
dataset1,2abd,ASP,56,0.098
dataset1,2abd,SER,29,0.311
dataset80,1pga,VAL,29,0.668
dataset89,1bdd,GLU,16,0.500
dataset14,1hfz,VAL,92,0.566
dataset30,1lz1,ARG,10,0.345
dataset65,1yob,SER,127,0.094
dataset14,1hfz,GLN,54,0.120
dataset89,1bdd,TYR,15,0.427
dataset31,1onc,VAL,88,0.461
dataset31,1onc,GLN,7,0.268
dataset85,1i1b,SER,123,0.185
dataset14,1hfz,PHE,80,0.121
dataset14,1hfz,ASP,84,0.034
dataset89,1bdd,GLU,48,0.369
dataset45,2lzm,LEU,79,0.284
dataset62,2vil,HIS,62,0.277
dataset31,1onc,LYS,49,0.311
dataset65,1yob,ALA,172,0.256
dataset24,5dfr,ALA,81,0.254
dataset91,1rbx,VAL,108,0.641
dataset91,1rbx,HIS,48,0.181
dataset80,1pga,THR,25,0.234
dataset14,1hfz,LEU,12,0.271
dataset31,1onc,LYS,9,0.150
dataset43,1joo,ARG,35,0.420
dataset31,1onc,VAL,44,0.140
dataset57,1e3y,MET,170,0.155
dataset62,2vil,PHE,110,0.246
dataset65,1yob,GLY,148,0.283
dataset12,1am7,GLY,20,0.038
dataset62,2vil,MET,84,0.087
dataset74,2crt,LYS,2,0.062
dataset83,1hel,LYS,96,0.204
dataset31,1onc,LYS,45,0.178
dataset65,1yob,LEU,78,0.381
dataset80,1pga,GLU,42,0.108
dataset12,1am7,LYS,147,0.114
dataset59,1hrh,GLN,524,0.315
dataset62,2vil,ILE,23,0.310
dataset62,2vil,SER,49,0.334
dataset57,1e3y,ALA,164,0.187
dataset43,1joo,VAL,23,0.254
dataset89,1bdd,ALA,49,0.479
dataset91,1rbx,ILE,106,0.653
dataset43,1joo,MET,32,0.064
dataset6,1mbc,ALA,110,0.179
dataset31,1onc,ASP,67,0.129
dataset22,1hce,LEU,45,0.176
dataset89,1bdd,LYS,51,0.226
dataset57,1e3y,VAL,121,0.107
dataset24,5dfr,PHE,103,0.254
dataset65,1yob,ALA,109,0.147
dataset60,1ubq,VAL,17,0.123
dataset1,2abd,ASN,59,0.264
dataset80,1pga,ILE,6,0.534
dataset31,1onc,ILE,11,0.224
dataset45,2lzm,ALA,98,0.452
dataset91,1rbx,VAL,47,0.185
dataset12,1am7,ASP,112,0.051
dataset14,1hfz,LYS,93,0.391
dataset62,2vil,TRP,21,0.462
dataset65,1yob,LEU,52,0.267
dataset89,1bdd,SER,34,0.164
dataset57,1e3y,PHE,101,0.351
dataset57,1e3y,LEU,119,0.281
dataset1,2abd,VAL,77,0.368
dataset12,1am7,THR,21,0.028
dataset1,2abd,LYS,62,0.124
dataset6,1mbc,LEU,115,0.156
dataset80,1pga,THR,44,0.300
dataset30,1lz1,LYS,13,0.339
dataset28,2eql,LEU,12,0.253
dataset57,1e3y,TRP,148,0.345
dataset31,1onc,LEU,65,0.382
dataset83,1hel,ILE,78,0.070
dataset80,1pga,PHE,52,0.283
dataset60,1ubq,SER,65,0.077
dataset31,1onc,THR,89,0.374
dataset6,1mbc,ILE,30,0.426
dataset80,1pga,ALA,20,0.125
dataset30,1lz1,TRP,34,0.296
dataset74,2crt,CYS,53,0.545
dataset80,1pga,ASP,46,0.082
dataset1,2abd,GLU,10,0.120
dataset85,1i1b,GLU,111,0.232
dataset60,1ubq,PHE,45,0.277
dataset89,1bdd,LYS,50,0.334
dataset59,1hrh,TYR,483,0.641
dataset62,2vil,LEU,47,0.604
dataset31,1onc,PHE,86,0.312
dataset83,1hel,VAL,29,0.208
dataset57,1e3y,VAL,103,0.428
dataset22,1hce,LEU,14,0.053
dataset91,1rbx,VAL,118,0.227
dataset12,1am7,LEU,83,0.132
dataset80,1pga,GLU,27,0.420
dataset1,2abd,GLU,78,0.343
dataset62,2vil,ASN,60,0.113
dataset60,1ubq,ILE,13,0.266
dataset12,1am7,PHE,42,0.229
dataset12,1am7,ILE,117,0.177
dataset45,2lzm,VAL,103,0.412
dataset30,1lz1,LYS,33,0.338
dataset60,1ubq,PHE,4,0.570
dataset12,1am7,LEU,69,0.239
dataset31,1onc,ILE,37,0.417
dataset45,2lzm,PHE,104,0.341
dataset6,1mbc,PHE,138,0.425
dataset60,1ubq,ILE,30,0.248
dataset30,1lz1,VAL,125,0.212
dataset1,2abd,TRP,55,0.140
dataset1,2abd,TYR,28,0.402
dataset14,1hfz,ILE,75,0.060
dataset14,1hfz,CYS,61,0.251
dataset6,1mbc,TRP,14,0.465
dataset1,2abd,MET,70,0.201
dataset80,1pga,LYS,31,0.612
dataset12,1am7,LEU,81,0.218
dataset74,2crt,LYS,23,0.396
dataset91,1rbx,LYS,98,0.095
dataset60,1ubq,LEU,56,0.097
dataset85,1i1b,VAL,72,0.424
dataset14,1hfz,VAL,27,0.316
dataset83,1hel,MET,12,0.271
dataset24,5dfr,GLU,157,0.242
dataset14,1hfz,TYR,50,0.075
dataset83,1hel,VAL,99,0.317
dataset85,1i1b,PHE,117,0.150
dataset89,1bdd,LEU,23,0.097
dataset31,1onc,PHE,36,0.388
dataset6,1mbc,ILE,112,0.235
dataset60,1ubq,ALA,28,0.330
dataset31,1onc,HIS,97,0.272
dataset60,1ubq,GLU,16,0.143
dataset22,1hce,GLU,114,0.158
dataset89,1bdd,LEU,18,0.609
dataset62,2vil,VAL,31,0.198
dataset59,1hrh,TYR,441,0.215
dataset1,2abd,ILE,39,0.078
dataset31,1onc,ALA,46,0.308
dataset65,1yob,GLY,126,0.166
dataset80,1pga,LEU,5,0.597
dataset18,1coe,ARG,28,0.181
dataset12,1am7,GLU,101,0.132
dataset12,1am7,LEU,96,0.310
dataset57,1e3y,ARG,166,0.144
dataset30,1lz1,LEU,12,0.466
dataset14,1hfz,TRP,60,0.255
dataset31,1onc,SER,39,0.162
dataset31,1onc,CYS,90,0.268
dataset12,1am7,ALA,10,0.174
dataset65,1yob,GLY,111,0.237
dataset89,1bdd,ILE,17,0.619
dataset74,2crt,VAL,52,0.579
dataset89,1bdd,LEU,52,0.189
dataset85,1i1b,TYR,68,0.305
dataset65,1yob,ALA,169,0.419
dataset60,1ubq,ARG,42,0.193
dataset12,1am7,ASP,118,0.089
dataset14,1hfz,VAL,90,0.505
dataset80,1pga,TYR,3,0.409
dataset74,2crt,ALA,28,0.231
dataset18,1coe,SER,45,0.093
dataset1,2abd,LYS,83,0.138
dataset85,1i1b,ASN,102,0.310
dataset14,1hfz,CYS,73,0.061
dataset57,1e3y,VAL,177,0.290
dataset57,1e3y,GLN,118,0.296
dataset59,1hrh,LEU,525,0.377
dataset80,1pga,ALA,26,0.350
dataset6,1mbc,HIS,113,0.253
dataset1,2abd,ALA,8,0.078
dataset60,1ubq,ASP,21,0.021
dataset59,1hrh,GLN,520,0.147
dataset91,1rbx,ILE,81,0.215
dataset12,1am7,ALA,16,0.243
dataset12,1am7,THR,152,0.052
dataset18,1coe,ASN,53,0.346
dataset6,1mbc,VAL,114,0.200
dataset12,1am7,LEU,12,0.352
dataset1,2abd,LYS,81,0.357
dataset59,1hrh,ALA,481,0.572
dataset62,2vil,VAL,98,0.064
dataset30,1lz1,MET,29,0.320
dataset45,2lzm,MET,102,0.348
dataset28,2eql,CYS,115,0.298
dataset30,1lz1,THR,11,0.390
dataset14,1hfz,LEU,96,0.304
dataset57,1e3y,ALA,174,0.222
dataset1,2abd,LYS,71,0.196
dataset74,2crt,ARG,58,0.038
dataset57,1e3y,CYS,105,0.470
dataset1,2abd,TYR,31,0.283
dataset45,2lzm,VAL,71,0.123
dataset74,2crt,ILE,39,0.187
dataset18,1coe,ASN,62,0.116
dataset62,2vil,ALA,77,0.057
dataset85,1i1b,LEU,69,0.381
dataset59,1hrh,ALA,485,0.558
dataset80,1pga,LYS,50,0.108
dataset74,2crt,VAL,49,0.517
dataset65,1yob,GLU,82,0.084
dataset83,1hel,TRP,63,0.367
dataset31,1onc,ALA,94,0.093
dataset80,1pga,TYR,33,0.430
dataset91,1rbx,CYS,84,0.164
dataset1,2abd,ALA,69,0.171
dataset60,1ubq,ILE,23,0.127
dataset85,1i1b,SER,70,0.478
dataset30,1lz1,LEU,31,0.528
dataset30,1lz1,LEU,8,0.335
dataset1,2abd,THR,64,0.062
dataset60,1ubq,LYS,29,0.261
dataset28,2eql,LYS,13,0.204
dataset80,1pga,VAL,54,0.284
dataset60,1ubq,ILE,44,0.346
dataset1,2abd,TYR,84,0.143
dataset1,2abd,GLU,11,0.184
dataset62,2vil,THR,82,0.081
dataset14,1hfz,PHE,53,0.148
dataset60,1ubq,VAL,5,0.550
dataset1,2abd,LEU,80,0.458
dataset74,2crt,CYS,21,0.375
dataset85,1i1b,PHE,42,0.358
dataset31,1onc,GLU,91,0.075
dataset1,2abd,ILE,74,0.355
dataset62,2vil,ARG,51,0.074
dataset65,1yob,SER,87,0.048
dataset57,1e3y,GLN,182,0.332
dataset14,1hfz,ASP,97,0.116
dataset31,1onc,CYS,48,0.444
dataset62,2vil,TRP,64,0.311
dataset31,1onc,CYS,87,0.573
dataset14,1hfz,ARG,10,0.221
dataset85,1i1b,VAL,100,0.521
dataset62,2vil,LEU,65,0.314
dataset28,2eql,ALA,9,0.229
dataset12,1am7,PHE,11,0.289
dataset74,2crt,ASP,57,0.042
dataset80,1pga,LYS,28,0.493
dataset60,1ubq,LEU,50,0.083
dataset62,2vil,GLN,19,0.146
dataset14,1hfz,LYS,79,0.063
dataset57,1e3y,LEU,145,0.288
dataset12,1am7,PHE,146,0.256
dataset65,1yob,ALA,165,0.243
dataset89,1bdd,ASN,22,0.106
dataset12,1am7,LEU,41,0.123
dataset28,2eql,MET,31,0.335
dataset12,1am7,GLN,97,0.370
dataset62,2vil,TYR,80,0.156
dataset89,1bdd,ALA,47,0.318
dataset57,1e3y,VAL,141,0.141
dataset91,1rbx,VAL,54,0.214
dataset62,2vil,TYR,45,0.540
dataset28,2eql,TRP,111,0.315
dataset89,1bdd,ASN,29,0.063
dataset43,1joo,LYS,24,0.297
dataset31,1onc,PHE,6,0.278
dataset89,1bdd,PHE,14,0.282
dataset85,1i1b,PHE,101,0.434
dataset31,1onc,GLN,93,0.042
dataset30,1lz1,TYR,124,0.297
dataset80,1pga,THR,51,0.187
dataset57,1e3y,SER,144,0.225
dataset45,2lzm,LEU,7,0.535
dataset65,1yob,LEU,168,0.484
dataset18,1coe,CYS,55,0.370
dataset85,1i1b,TYR,121,0.315
dataset62,2vil,GLU,97,0.043
dataset85,1i1b,TRP,120,0.184
dataset28,2eql,TRP,28,0.228
dataset22,1hce,PHE,74,0.111
dataset24,5dfr,TYR,111,0.349
dataset6,1mbc,ILE,107,0.183
dataset80,1pga,LEU,7,0.311
dataset14,1hfz,VAL,99,0.145
dataset12,1am7,GLN,98,0.409
dataset80,1pga,GLN,32,0.473
dataset60,1ubq,VAL,26,0.268
dataset59,1hrh,GLN,480,0.412
dataset89,1bdd,LYS,36,0.080
dataset6,1mbc,LEU,11,0.472
dataset85,1i1b,THR,79,0.078
dataset31,1onc,LYS,8,0.179
dataset85,1i1b,GLN,81,0.175
dataset14,1hfz,ILE,95,0.370
dataset85,1i1b,PHE,99,0.417
dataset1,2abd,LYS,82,0.205
dataset31,1onc,TYR,38,0.309
dataset12,1am7,MET,14,0.295
dataset1,2abd,GLU,79,0.378
dataset1,2abd,ASP,75,0.269
dataset80,1pga,THR,53,0.302
dataset60,1ubq,LYS,6,0.339
dataset85,1i1b,ILE,104,0.350
dataset12,1am7,SER,90,0.014
dataset85,1i1b,LYS,103,0.287
dataset80,1pga,PHE,30,0.728
dataset14,1hfz,LYS,98,0.079
dataset89,1bdd,ARG,28,0.070
dataset62,2vil,TYR,109,0.209
dataset22,1hce,TYR,62,0.271
dataset6,1mbc,VAL,10,0.420
dataset1,2abd,VAL,36,0.179
dataset59,1hrh,ASN,494,0.236
dataset43,1joo,MET,26,0.384
dataset14,1hfz,LEU,81,0.124
dataset18,1coe,ILE,50,0.172
dataset22,1hce,LEU,53,0.213
dataset91,1rbx,VAL,116,0.276
dataset1,2abd,LYS,76,0.271
dataset22,1hce,LEU,73,0.074