%!PS-Adobe-3.0 EPSF-3.0
%%DocumentNeededResources: font Helvetica
%%+ font Helvetica-Bold
%%+ font Helvetica-Oblique
%%+ font Helvetica-BoldOblique
%%+ font Symbol
%%Title: R Graphics Output
%%Creator: R Software
%%Pages: (atend)
%%BoundingBox: 0 0 557 471
%%EndComments
%%BeginProlog
/bp  { gs sRGB gs } def
% begin .ps.prolog
/gs  { gsave } bind def
/gr  { grestore } bind def
/ep  { showpage gr gr } bind def
/m   { moveto } bind def
/l  { rlineto } bind def
/np  { newpath } bind def
/cp  { closepath } bind def
/f   { fill } bind def
/o   { stroke } bind def
/c   { newpath 0 360 arc } bind def
/r   { 4 2 roll moveto 1 copy 3 -1 roll exch 0 exch rlineto 0 rlineto -1 mul 0 exch rlineto closepath } bind def
/p1  { stroke } bind def
/p2  { gsave bg fill grestore newpath } bind def
/p3  { gsave bg fill grestore stroke } bind def
/p6  { gsave bg eofill grestore newpath } bind def
/p7  { gsave bg eofill grestore stroke } bind def
/t   { 5 -2 roll moveto gsave rotate
       1 index stringwidth pop
       mul neg 0 rmoveto show grestore } bind def
/ta  { 4 -2 roll moveto gsave rotate show } bind def
/tb  { 2 -1 roll 0 rmoveto show } bind def
/cl  { grestore gsave newpath 3 index 3 index moveto 1 index
       4 -1 roll lineto  exch 1 index lineto lineto
       closepath clip newpath } bind def
/rgb { setrgbcolor } bind def
/s   { scalefont setfont } bind def
% end   .ps.prolog
/sRGB { [ /CIEBasedABC
          << /DecodeLMN
               [ { dup 0.03928 le
                        {12.92321 div}
                        {0.055 add 1.055 div 2.4 exp }
                     ifelse
                 } bind dup dup
               ]
             /MatrixLMN [0.412457 0.212673 0.019334
                         0.357576 0.715152 0.119192
                         0.180437 0.072175 0.950301]
             /WhitePoint [0.9505 1.0 1.0890]
           >>
         ] setcolorspace } bind def
/srgb { setcolor } bind def
%%IncludeResource: font Helvetica
/Helvetica findfont
dup length dict begin
  {1 index /FID ne {def} {pop pop} ifelse} forall
  /Encoding ISOLatin1Encoding def
  currentdict
  end
/Font1 exch definefont pop
%%IncludeResource: font Helvetica-Bold
/Helvetica-Bold findfont
dup length dict begin
  {1 index /FID ne {def} {pop pop} ifelse} forall
  /Encoding ISOLatin1Encoding def
  currentdict
  end
/Font2 exch definefont pop
%%IncludeResource: font Helvetica-Oblique
/Helvetica-Oblique findfont
dup length dict begin
  {1 index /FID ne {def} {pop pop} ifelse} forall
  /Encoding ISOLatin1Encoding def
  currentdict
  end
/Font3 exch definefont pop
%%IncludeResource: font Helvetica-BoldOblique
/Helvetica-BoldOblique findfont
dup length dict begin
  {1 index /FID ne {def} {pop pop} ifelse} forall
  /Encoding ISOLatin1Encoding def
  currentdict
  end
/Font4 exch definefont pop
%%IncludeResource: font Symbol
/Symbol findfont
dup length dict begin
  {1 index /FID ne {def} {pop pop} ifelse} forall
  currentdict
  end
/Font5 exch definefont pop
%%EndProlog
%%Page: 1 1
bp
/bg { 1 1 1 srgb } def
0.00 0.00 556.50 471.00 r p2
0.00 0.00 556.50 471.00 cl
/Font1 findfont 12 s
0 0 0 srgb
14.40 75.09 (hbond) 0 0 t
14.40 96.89 (coulomb) 0 0 t
14.40 118.69 (e) 0 ta
-0.360 (xposurefr) tb
-0.120 (action) tb gr
14.40 140.49 (contact) 0 0 t
14.40 162.29 (w) 0 ta
-0.180 (ater_contact) tb gr
14.40 184.09 (sasa) 0 0 t
14.40 205.89 (b) 0 ta
-0.240 (ur) tb
0.180 (ied_r) tb
-0.120 (atio) tb gr
14.40 227.69 (N_sa) 0 0 t
14.40 249.49 (hea) 0 ta
-0.240 (vy) tb
-0.240 (atomcontact) tb gr
14.40 271.29 (ss_type) 0 0 t
14.40 293.09 (temper) 0 ta
-0.120 (ature) tb gr
14.40 314.89 (hbondstrength) 0 0 t
14.40 336.69 (pH) 0 0 t
14.40 358.49 (residue) 0 0 t
118.35 57.60 263.85 384.60 cl
0.7451 0.7451 0.7451 srgb
0.75 setlinewidth
[ 0.00 3.00] 0 setdash
1 setlinecap
1 setlinejoin
10.00 setmiterlimit
np
118.35 79.40 m
145.50 0 l
o
np
118.35 101.20 m
145.50 0 l
o
np
118.35 123.00 m
145.50 0 l
o
np
118.35 144.80 m
145.50 0 l
o
np
118.35 166.60 m
145.50 0 l
o
np
118.35 188.40 m
145.50 0 l
o
np
118.35 210.20 m
145.50 0 l
o
np
118.35 232.00 m
145.50 0 l
o
np
118.35 253.80 m
145.50 0 l
o
np
118.35 275.60 m
145.50 0 l
o
np
118.35 297.40 m
145.50 0 l
o
np
118.35 319.20 m
145.50 0 l
o
np
118.35 341.00 m
145.50 0 l
o
np
118.35 362.80 m
145.50 0 l
o
/bg { 1 1 1 srgb } def
0 0 0 srgb
0.75 setlinewidth
[] 0 setdash
123.74 79.40 2.70 c p3
138.23 101.20 2.70 c p3
138.73 123.00 2.70 c p3
139.24 144.80 2.70 c p3
141.46 166.60 2.70 c p3
141.50 188.40 2.70 c p3
143.22 210.20 2.70 c p3
144.32 232.00 2.70 c p3
145.26 253.80 2.70 c p3
165.36 275.60 2.70 c p3
167.35 297.40 2.70 c p3
170.02 319.20 2.70 c p3
187.22 341.00 2.70 c p3
258.46 362.80 2.70 c p3
0.00 0.00 556.50 471.00 cl
0 0 0 srgb
0.75 setlinewidth
[] 0 setdash
1 setlinecap
1 setlinejoin
10.00 setmiterlimit
np
129.66 57.60 m
121.65 0 l
o
np
129.66 57.60 m
0 -7.20 l
o
np
149.94 57.60 m
0 -7.20 l
o
np
170.21 57.60 m
0 -7.20 l
o
np
190.48 57.60 m
0 -7.20 l
o
np
210.76 57.60 m
0 -7.20 l
o
np
231.03 57.60 m
0 -7.20 l
o
np
251.31 57.60 m
0 -7.20 l
o
/Font1 findfont 12 s
129.66 34.56 (40) .5 0 t
170.21 34.56 (80) .5 0 t
210.76 34.56 (120) .5 0 t
251.31 34.56 (160) .5 0 t
np
118.35 57.60 m
145.50 0 l
0 327.00 l
-145.50 0 l
0 -327.00 l
o
0.00 0.00 278.25 442.20 cl
/Font1 findfont 12 s
0 0 0 srgb
125.75 17.28 (MeanDecreaseAccur) 0 ta
-0.120 (acy) tb gr
350.25 57.60 542.10 384.60 cl
0.00 0.00 556.50 471.00 cl
/Font1 findfont 12 s
0 0 0 srgb
292.65 75.09 (hbond) 0 0 t
292.65 96.89 (coulomb) 0 0 t
292.65 118.69 (N_sa) 0 0 t
292.65 140.49 (contact) 0 0 t
292.65 162.29 (w) 0 ta
-0.180 (ater_contact) tb gr
292.65 184.09 (ss_type) 0 0 t
292.65 205.89 (b) 0 ta
-0.240 (ur) tb
0.180 (ied_r) tb
-0.120 (atio) tb gr
292.65 227.69 (sasa) 0 0 t
292.65 249.49 (e) 0 ta
-0.360 (xposurefr) tb
-0.120 (action) tb gr
292.65 271.29 (temper) 0 ta
-0.120 (ature) tb gr
292.65 293.09 (hea) 0 ta
-0.240 (vy) tb
-0.240 (atomcontact) tb gr
292.65 314.89 (pH) 0 0 t
292.65 336.69 (hbondstrength) 0 0 t
292.65 358.49 (residue) 0 0 t
396.60 57.60 542.10 384.60 cl
0.7451 0.7451 0.7451 srgb
0.75 setlinewidth
[ 0.00 3.00] 0 setdash
1 setlinecap
1 setlinejoin
10.00 setmiterlimit
np
396.60 79.40 m
145.50 0 l
o
np
396.60 101.20 m
145.50 0 l
o
np
396.60 123.00 m
145.50 0 l
o
np
396.60 144.80 m
145.50 0 l
o
np
396.60 166.60 m
145.50 0 l
o
np
396.60 188.40 m
145.50 0 l
o
np
396.60 210.20 m
145.50 0 l
o
np
396.60 232.00 m
145.50 0 l
o
np
396.60 253.80 m
145.50 0 l
o
np
396.60 275.60 m
145.50 0 l
o
np
396.60 297.40 m
145.50 0 l
o
np
396.60 319.20 m
145.50 0 l
o
np
396.60 341.00 m
145.50 0 l
o
np
396.60 362.80 m
145.50 0 l
o
/bg { 1 1 1 srgb } def
0 0 0 srgb
0.75 setlinewidth
[] 0 setdash
431.26 79.40 2.70 c p3
440.85 101.20 2.70 c p3
462.95 123.00 2.70 c p3
469.76 144.80 2.70 c p3
472.66 166.60 2.70 c p3
475.89 188.40 2.70 c p3
485.20 210.20 2.70 c p3
489.68 232.00 2.70 c p3
492.88 253.80 2.70 c p3
494.90 275.60 2.70 c p3
509.56 297.40 2.70 c p3
511.15 319.20 2.70 c p3
535.24 341.00 2.70 c p3
536.71 362.80 2.70 c p3
0.00 0.00 556.50 471.00 cl
0 0 0 srgb
0.75 setlinewidth
[] 0 setdash
1 setlinecap
1 setlinejoin
10.00 setmiterlimit
np
401.99 57.60 m
110.38 0 l
o
np
401.99 57.60 m
0 -7.20 l
o
np
438.78 57.60 m
0 -7.20 l
o
np
475.58 57.60 m
0 -7.20 l
o
np
512.37 57.60 m
0 -7.20 l
o
/Font1 findfont 12 s
401.99 34.56 (0) .5 0 t
438.78 34.56 (100) .5 0 t
475.58 34.56 (200) .5 0 t
512.37 34.56 (300) .5 0 t
np
396.60 57.60 m
145.50 0 l
0 327.00 l
-145.50 0 l
0 -327.00 l
o
278.25 0.00 556.50 442.20 cl
/Font1 findfont 12 s
0 0 0 srgb
469.35 17.28 (MeanDecreaseGini) .5 0 t
0.00 0.00 556.50 471.00 cl
/Font1 findfont 14 s
0 0 0 srgb
278.25 445.08 (hdrf) .5 0 t
ep
%%Trailer
%%Pages: 1
%%EOF
