1g68,VAL,12
1g68,VAL,27
1g68,LEU,28
1g68,TYR,38
1g68,CYS,55
1g68,ALA,56
1g68,ASP,61
1g68,ALA,62
1g68,PHE,129
1g68,ALA,225
1g68,VAL,226
1g68,VAL,227
1g68,ILE,235
1g68,ILE,236
1g68,VAL,237
1g68,SER,238
1g68,ILE,239
1g68,TYR,240
1g68,VAL,256
1g68,GLY,259
1g68,HIS,260
1g68,SER,261
1g68,ASP,264
1g68,ASP,11
1g68,LYS,13
1g68,VAL,17
1g68,ALA,21
1g68,ASP,29
1g68,TRP,36
1g68,GLN,42
1g68,PHE,44
1g68,ILE,53
1g68,ALA,54
1g68,LYS,57
1g68,LEU,59
1g68,GLU,63
1g68,ASP,98
1g68,ASP,99
1g68,CYS,101
1g68,PHE,102
1g68,LEU,117
1g68,SER,118
1g68,ALA,119
1g68,VAL,120
1g68,GLY,122
1g68,VAL,126
1g68,THR,127
1g68,ASP,128
1g68,LEU,130
1g68,ARG,131
1g68,GLN,132
1g68,ILE,133
1g68,ASP,135
1g68,THR,138
1g68,ARG,139
1g68,ASP,141
1g68,ARG,142
1g68,GLU,144
1g68,LEU,147
1g68,THR,158
1g68,THR,159
1g68,ILE,164
1g68,ALA,165
1g68,SER,166
1g68,LEU,168
1g68,ASN,169
1g68,PHE,171
1g68,LEU,172
1g68,PHE,173
1g68,LEU,185
1g68,GLU,186
1g68,SER,187
1g68,TRP,188
1g68,MET,189
1g68,VAL,190
1g68,TRP,207
1g68,ASN,208
1g68,ALA,210
1g68,ASP,211
1g68,ILE,223
1g68,THR,224
1g68,LEU,241
1g68,ALA,242
1g68,ALA,254
1g68,ILE,255
1g68,LYS,257
1g68,ILE,262
1g68,VAL,265
3npo,VAL,118
1rg8,SER,72
1rg8,TYR,78
1rg8,LEU,79
1rg8,ALA,80
1rg8,MET,81
1rg8,GLY,85
1rg8,GLY,89
1rg8,LEU,98
1rg8,ARG,38
1rg8,ILE,39
1rg8,LEU,40
1rg8,TYR,69
1rg8,PHE,99
1rg8,LEU,100
1rg8,LEU,37
1rg8,VAL,45
1rg8,GLY,47
1rg8,THR,48
1rg8,LEU,58
1rg8,GLN,59
1rg8,VAL,68
1rg8,ILE,70
1rg8,ASP,82
1rg8,TYR,88
1rg8,THR,110
1rg8,TYR,111
1rg8,PHE,122
1rg8,LEU,147
1rg8,LEU,28
1rg8,ILE,112
1rg8,VAL,123
1rg8,ALA,143
1rg8,ILE,144
1rg8,LEU,145
1rg8,PHE,146
1hfz,ARG,11
1hfz,LEU,13
1hfz,VAL,28
1hfz,VAL,43
1hfz,TYR,51
1hfz,PHE,54
1hfz,GLN,55
1hfz,ILE,56
1hfz,LYS,59
1hfz,TRP,61
1hfz,CYS,62
1hfz,LYS,63
1hfz,CYS,74
1hfz,ILE,76
1hfz,LYS,80
1hfz,PHE,81
1hfz,LEU,82
1hfz,ASP,85
1hfz,ILE,90
1hfz,VAL,91
1hfz,VAL,93
1hfz,LYS,95
1hfz,ILE,96
1hfz,LEU,97
1hfz,ASP,98
1hfz,LYS,99
1hfz,VAL,100
1hfz,THR,49
1hfz,GLU,50
1hfz,LEU,53
1hfz,CYS,78
1hfz,ASP,89
1hfz,PHE,10
1hfz,TRP,27
1hfz,ALA,41
1hfz,ILE,42
1hfz,GLY,52
1hfz,ASN,58
1hfz,ILE,73
1hfz,SER,77
1hfz,THR,87
1hfz,CYS,92
1hfz,GLY,101
1hfz,ILE,102
1hfz,TRP,105
1hfz,LYS,14
1hfz,ASP,38
2lzm,ALA,97
3chy,PHE,7
3chy,ARG,21
3chy,LEU,23
3chy,LYS,25
3chy,LEU,27
3chy,PHE,29
3chy,PHE,52
3chy,SER,55
3chy,ASN,120
3chy,ASP,11
3chy,GLU,26
3chy,ALA,35
3chy,ALA,41
3chy,VAL,53
3chy,THR,70
3chy,MET,84
3chy,THR,86
3chy,LYS,118
3chy,LEU,119
3chy,VAL,9
3chy,GLU,33
3chy,ASP,37
3chy,LEU,42
3chy,ILE,54
3chy,ILE,71
3chy,VAL,82
3chy,LEU,83
3chy,VAL,85
3chy,VAL,106
3chy,LYS,108
3chy,LEU,115
3chy,GLU,116
3chy,ILE,122
3chy,PHE,123
1hrh,TYR,15
1hrh,TYR,57
1hrh,ALA,59
1hrh,ASN,68
1hrh,ILE,69
1hrh,GLN,94
1hrh,ILE,95
1hrh,GLN,98
1hrh,LEU,99
1hrh,TYR,106
1hrh,ALA,108
1hrh,ILE,56
1hrh,LEU,58
1hrh,LEU,60
1hrh,GLU,97
1hrh,VAL,16
1hrh,VAL,67
1hrh,VAL,70
1hrh,ILE,100
1hcv,THR,69
1hcv,SER,71
1hcv,TYR,80
1hcv,LEU,81
1hcv,GLN,82
1hcv,MET,83
1hcv,LYS,87
1hcv,ASP,90
1hcv,ALA,92
1hcv,TYR,94
1hcv,GLN,109
1hcv,ALA,61
1hcv,PHE,68
1hcv,ASN,84
1hcv,VAL,93
1hcv,THR,95
1hcv,GLY,99
1hcv,SER,106
1hcv,GLY,108
1hcv,VAL,113
1hcv,THR,114
1hcv,VAL,115
1e3y,PHE,13
1e3y,CYS,17
1e3y,LEU,27
1e3y,ARG,29
1e3y,GLN,30
1e3y,LEU,31
1e3y,LYS,32
1e3y,VAL,33
1e3y,ILE,41
1e3y,VAL,53
1e3y,SER,56
1e3y,LEU,57
1e3y,ILE,59
1e3y,TRP,60
1e3y,LYS,61
1e3y,VAL,74
1e3y,GLY,75
1e3y,ALA,76
1e3y,ARG,78
1e3y,MET,82
1e3y,ALA,86
1e3y,VAL,89
1e3y,GLN,94
1mzk,LEU,3
1mzk,PHE,4
1mzk,LEU,5
1mzk,VAL,7
1mzk,ALA,9
1mzk,LEU,15
1mzk,ALA,51
1mzk,GLN,52
1mzk,ILE,53
1mzk,THR,54
1mzk,LYS,61
1mzk,GLU,63
1mzk,LEU,64
1mzk,VAL,94
1mzk,LEU,96
1mzk,ALA,97
1mzk,ASP,99
1mzk,ASP,100
1mzk,ILE,101
1mzk,ILE,102
1mzk,THR,103
1mzk,LYS,109
1mzk,VAL,110
1mzk,TYR,111
1mzk,VAL,112
1mzk,GLY,14
1mzk,HIS,17
1mzk,LYS,30
1mzk,PHE,60
1mzk,TRP,62
1mzk,ASP,66
1mzk,SER,69
1mzk,GLY,72
1mzk,THR,73
1mzk,LEU,74
1mzk,GLY,105
1mzk,THR,108
1mzk,VAL,46
1mzk,VAL,75
1mzk,LEU,85
3ci2,LYS,13
3ci2,ILE,22
3ci2,LEU,23
3ci2,ILE,32
3ci2,LEU,34
3ci2,VAL,49
3ci2,PHE,52
3ci2,TRP,7
3ci2,LEU,10
3ci2,VAL,11
3ci2,LYS,20
3ci2,VAL,21
3ci2,GLN,24
3ci2,ARG,48
3ci2,ARG,50
3ci2,ASP,54
3ci2,ILE,59
3ci2,ALA,60
3ci2,GLN,61
3ci2,ARG,64
1sr2,VAL,48
1sr2,LYS,49
1sr2,ARG,50
1sr2,LEU,51
1sr2,TYR,52
1sr2,ALA,55
1sr2,ALA,56
1sr2,LEU,63
1sr2,ALA,64
1sr2,GLN,65
1sr2,THR,66
1sr2,ALA,67
1sr2,HIS,68
1sr2,ARG,69
1sr2,LEU,70
1sr2,LYS,71
1sr2,GLY,72
1sr2,VAL,73
1sr2,PHE,74
1sr2,ALA,75
1sr2,MET,76
1sr2,LEU,77
1sr2,ASN,78
1sr2,GLY,82
1sr2,LYS,83
1sr2,GLU,90
1sr2,LEU,92
1sr2,ILE,93
1sr2,GLU,95
1sr2,LYS,96
1sr2,ASP,97
1sr2,VAL,98
1sr2,ILE,101
1sr2,GLU,102
1sr2,LYS,103
1sr2,TYR,104
1sr2,ILE,105
1sr2,SER,106
1sr2,ASP,107
1sr2,ILE,108
1sr2,ASP,109
1sr2,SER,110
1sr2,TYR,111
1sr2,VAL,112
1sr2,LYS,113
1sr2,SER,114
1sr2,LEU,115
1sr2,LEU,116
1jbh,TRP,9
1jbh,LEU,12
1jbh,TYR,20
1jbh,LEU,21
1jbh,ARG,22
1jbh,ALA,23
1jbh,LEU,24
1jbh,LYS,41
1jbh,GLU,42
1jbh,ILE,43
1jbh,VAL,44
1jbh,MET,50
1jbh,ILE,52
1jbh,ARG,53
1jbh,PHE,65
1jbh,PHE,71
1jbh,SER,88
1jbh,LYS,93
1jbh,GLN,95
1jbh,CYS,96
1jbh,TRP,107
1jbh,THR,108
1jbh,GLN,109
1jbh,TRP,110
1jbh,GLU,112
1jbh,LEU,116
1jbh,HIS,117
1jbh,LEU,118
1jbh,GLU,119
1jbh,MET,120
1jbh,ARG,121
1jbh,ALA,122
1jbh,VAL,125
1jbh,CYS,127
1jbh,GLN,129
1jbh,VAL,130
1jbh,PHE,131
1jbh,SER,13
1jbh,ASP,25
1jbh,ASP,40
1jbh,CYS,83
1jbh,THR,86
1jbh,VAL,87
1jbh,VAL,97
1jbh,ILE,111
1jbh,GLU,115
1jbh,LYS,128
1osp,ASN,3
1osp,SER,5
1osp,GLU,9
1osp,ASN,11
1osp,SER,14
1osp,VAL,15
1osp,ASP,16
1osp,PRO,18
1osp,MET,21
1osp,LYS,22
1osp,VAL,25
1osp,SER,26
1osp,GLU,28
1osp,LYS,29
1osp,ASN,30
1osp,LYS,31
1osp,ASP,32
1osp,GLY,33
1osp,LYS,34
1osp,TYR,35
1osp,ASP,36
1osp,LEU,37
1osp,ILE,38
1osp,ALA,39
1osp,THR,40
1osp,VAL,41
1osp,ASP,42
1osp,LYS,43
1osp,LEU,44
1osp,LEU,46
1osp,LYS,47
1osp,GLY,48
1osp,THR,49
1osp,SER,50
1osp,ASP,51
1osp,LYS,52
1osp,ASN,53
1osp,ASN,54
1osp,GLY,55
1osp,SER,56
1osp,GLY,57
1osp,LEU,59
1osp,GLU,60
1osp,GLY,61
1osp,VAL,62
1osp,LYS,63
1osp,ALA,64
1osp,ASP,65
1osp,LYS,66
1osp,LYS,68
1osp,VAL,69
1osp,LYS,70
1osp,LEU,71
1osp,THR,72
1osp,ILE,73
1osp,SER,74
1osp,ASP,75
1osp,ASP,76
1osp,LEU,77
1osp,GLN,79
1osp,THR,80
1osp,THR,81
1osp,LEU,82
1osp,GLU,83
1osp,VAL,84
1osp,PHE,85
1osp,LYS,86
1osp,GLU,87
1osp,ASP,88
1osp,GLY,89
1osp,LYS,90
1osp,THR,91
1osp,LEU,92
1osp,VAL,93
1osp,SER,94
1osp,LYS,95
1osp,LYS,96
1osp,VAL,97
1osp,SER,99
1osp,LYS,100
1osp,ASP,101
1osp,LYS,102
1osp,SER,103
1osp,SER,104
1osp,THR,105
1osp,GLU,106
1osp,GLU,107
1osp,LYS,108
1osp,PHE,109
1osp,ASN,110
1osp,GLU,111
1osp,GLY,113
1osp,GLU,114
1osp,VAL,115
1osp,GLU,117
1osp,LYS,118
1osp,ILE,119
1osp,ILE,120
1osp,THR,121
1osp,ARG,122
1osp,ALA,123
1osp,ASP,124
1osp,GLY,125
1osp,THR,126
1osp,ARG,127
1osp,LEU,128
1osp,GLU,129
1osp,TYR,130
1osp,THR,131
1osp,GLY,132
1osp,ILE,133
1osp,LYS,134
1osp,SER,135
1osp,GLU,157
1osp,LYS,158
1osp,THR,159
1osp,THR,160
1osp,LEU,161
1osp,VAL,162
1osp,VAL,163
1osp,LYS,164
1osp,GLU,165
1osp,GLY,166
1osp,THR,167
1osp,VAL,168
1osp,THR,169
1osp,LEU,170
1osp,SER,171
1osp,LYS,172
1osp,ASN,173
1osp,ILE,174
1osp,SER,175
1osp,LYS,176
1osp,SER,177
1osp,GLY,178
1osp,GLU,179
1osp,SER,181
1osp,VAL,182
1osp,GLU,183
1osp,LEU,184
1osp,ASN,185
1osp,ASP,186
1osp,THR,187
1osp,ASP,188
1osp,SER,189
1osp,SER,190
1osp,ALA,191
1osp,ALA,192
1osp,THR,193
1osp,LYS,194
1osp,LYS,195
1osp,THR,196
1osp,ALA,197
1osp,ALA,198
1osp,TRP,199
1osp,ASN,200
1osp,SER,201
1osp,GLY,202
1osp,THR,203
1osp,SER,204
1osp,THR,205
1osp,LEU,206
1osp,THR,207
1osp,ILE,208
1osp,THR,209
1osp,VAL,210
1osp,ASN,211
1osp,SER,212
1osp,LYS,213
1osp,LYS,214
1osp,THR,215
1osp,LYS,216
1osp,ASP,217
1osp,LEU,218
1osp,VAL,219
1osp,PHE,220
1osp,THR,221
1osp,LYS,222
1osp,GLU,223
1osp,ASN,224
1osp,THR,225
1osp,ILE,226
1osp,THR,227
1osp,VAL,228
1osp,GLN,229
1osp,GLN,230
1osp,TYR,231
1osp,ASP,232
1osp,SER,233
1osp,ASN,234
1osp,GLY,235
1osp,THR,236
1osp,LYS,237
1osp,LEU,238
1osp,GLU,239
1osp,GLY,240
1osp,SER,241
1osp,ALA,242
1osp,VAL,243
1osp,GLU,244
1osp,ILE,245
1osp,THR,246
1osp,LYS,247
1osp,LEU,248
1osp,GLU,250
1osp,ILE,251
1osp,LYS,252
1osp,ASN,253
1osp,ALA,254
1osp,LYS,256
1be9,ILE,18
1be9,ILE,20
1be9,PHE,41
1be9,ILE,42
1be9,ARG,58
1be9,GLY,60
1be9,ASP,61
1be9,GLN,62
1be9,ILE,63
1be9,LEU,64
1be9,SER,65
1be9,VAL,66
1be9,ALA,82
1be9,ILE,92
1be9,ILE,93
1be9,ALA,94
1be9,GLN,95
1be9,ASN,30
1be9,ILE,40
1be9,SER,43
1be9,VAL,69
1be9,LEU,71
1be9,ALA,79
1be9,ALA,80
1be9,ILE,81
1be9,LEU,83
1be9,LYS,84
1be9,VAL,90
1be9,LYS,97
1be9,ARG,16
1be9,LEU,46
1be9,THR,91
1am7,TRP,74
1am7,TRP,17
1am7,TRP,124
1opa,TRP,9
1opa,ILE,43
1opa,VAL,44
1opa,THR,88
1opa,LEU,94
1opa,VAL,95
1opa,GLN,98
1opa,TRP,107
1opa,LYS,108
1opa,GLN,109
1opa,TRP,110
1opa,LEU,116
1opa,TYR,117
1opa,LEU,118
1opa,GLU,119
1opa,LEU,120
1opa,THR,121
1opa,CYS,127
1opa,GLN,129
1opa,VAL,130
1opa,LYS,22
1opa,ALA,23
1opa,LEU,24
1opa,PHE,50
1opa,LYS,51
1opa,THR,52
1opa,PHE,71
1opa,LEU,86
1opa,VAL,87
1opa,VAL,97
1opa,CYS,122
1opa,PHE,131
1qlp,GLY,5
1qlp,ASP,6
1qlp,ALA,8
1qlp,LYS,10
